(export (version D)
  (design
    (source /home/azisi/Documents/UPSat/qubik/qubik-rf/pa_devboard/pa_devboard/pa_devboard.sch)
    (date "Wed 23 Oct 2019 13:18:06 EEST")
    (tool "Eeschema 5.1.4-e60b266~84~ubuntu18.04.1")
    (sheet (number 1) (name /) (tstamps /)
      (title_block
        (title "PA MMZ25332B - DEV Board")
        (company "Libre Space Foundation")
        (rev B)
        (date 2019-10-08)
        (source pa_devboard.sch)
        (comment (number 1) (value "Licensed under the CERN OHLv1.2"))
        (comment (number 2) (value ""))
        (comment (number 3) (value ""))
        (comment (number 4) (value "")))))
  (components
    (comp (ref L1)
      (value "3.9 nH ")
      (footprint Inductor_SMD:L_0603_1608Metric_Pad0.99x1.00mm_HandSolder)
      (datasheet ~)
      (fields
        (field (name Mnf.) B82496C3399J))
      (libsource (lib Device) (part L) (description Inductor))
      (sheetpath (names /) (tstamps /))
      (tstamp 5ADF7F3D))
    (comp (ref C2)
      (value "220 pF ")
      (footprint Capacitor_SMD:C_0603_1608Metric_Pad0.99x1.00mm_HandSolder)
      (datasheet ~)
      (fields
        (field (name Mnf.) GCM1885C2A221JA16))
      (libsource (lib Device) (part C) (description "Unpolarized capacitor"))
      (sheetpath (names /) (tstamps /))
      (tstamp 5ADF8279))
    (comp (ref L5)
      (value "5.6 nH ")
      (footprint Inductor_SMD:L_0603_1608Metric_Pad0.99x1.00mm_HandSolder)
      (datasheet ~)
      (fields
        (field (name Mnf.) LQG18HN5N6S00))
      (libsource (lib Device) (part L) (description Inductor))
      (sheetpath (names /) (tstamps /))
      (tstamp 5ADF83C9))
    (comp (ref L4)
      (value "22 nH ")
      (footprint Inductor_SMD:L_0603_1608Metric_Pad0.99x1.00mm_HandSolder)
      (datasheet ~)
      (fields
        (field (name Mnf.) LQW18AN22NG00))
      (libsource (lib Device) (part L) (description Inductor))
      (sheetpath (names /) (tstamps /))
      (tstamp 5ADF847D))
    (comp (ref C3)
      (value "18 pF ")
      (footprint Capacitor_SMD:C_0603_1608Metric_Pad0.99x1.00mm_HandSolder)
      (datasheet ~)
      (fields
        (field (name Mnf.) 06035U180GAT2A))
      (libsource (lib Device) (part C) (description "Unpolarized capacitor"))
      (sheetpath (names /) (tstamps /))
      (tstamp 5ADF8788))
    (comp (ref C4)
      (value C)
      (footprint Capacitor_SMD:C_0603_1608Metric_Pad0.99x1.00mm_HandSolder)
      (datasheet ~)
      (libsource (lib Device) (part C) (description "Unpolarized capacitor"))
      (sheetpath (names /) (tstamps /))
      (tstamp 5ADF8823))
    (comp (ref J4)
      (value Conn_Coaxial)
      (footprint lsf-kicad-lib:Conn_SMA_Molex_73251-1150)
      (fields
        (field (name Mnf.) "73251-1150 "))
      (libsource (lib pa_devboard-rescue) (part Conn_Coaxial-Connector_Specialized) (description ""))
      (sheetpath (names /) (tstamps /))
      (tstamp 5ADF8A02))
    (comp (ref U1)
      (value MMZ09332B)
      (footprint lsf-kicad-lib:MMZ09332B)
      (datasheet https://www.mouser.com/ds/2/302/a-1126961.pdf)
      (fields
        (field (name Mnf.) MMZ09332BT1))
      (libsource (lib lsd-kicad) (part MMZ09332B) (description "High Efficiency/Linearity Amplifier"))
      (sheetpath (names /) (tstamps /))
      (tstamp 5ADF8CFC))
    (comp (ref C13)
      (value "100 pF ")
      (footprint Capacitor_SMD:C_0603_1608Metric_Pad0.99x1.00mm_HandSolder)
      (datasheet ~)
      (fields
        (field (name Mnf.) 06036C101JAT2A))
      (libsource (lib Device) (part C) (description "Unpolarized capacitor"))
      (sheetpath (names /) (tstamps /))
      (tstamp 5ADFABD8))
    (comp (ref R1)
      (value R)
      (footprint Resistor_SMD:R_0603_1608Metric_Pad0.99x1.00mm_HandSolder)
      (datasheet ~)
      (libsource (lib Device) (part R) (description Resistor))
      (sheetpath (names /) (tstamps /))
      (tstamp 5ADFD2F5))
    (comp (ref R2)
      (value R)
      (footprint Resistor_SMD:R_0603_1608Metric_Pad0.99x1.00mm_HandSolder)
      (datasheet ~)
      (libsource (lib Device) (part R) (description Resistor))
      (sheetpath (names /) (tstamps /))
      (tstamp 5ADFD3D7))
    (comp (ref C16)
      (value "1 uF ")
      (footprint Capacitor_SMD:C_0603_1608Metric_Pad0.99x1.00mm_HandSolder)
      (datasheet ~)
      (fields
        (field (name Mnf.) 06036C105KAT2A))
      (libsource (lib Device) (part C) (description "Unpolarized capacitor"))
      (sheetpath (names /) (tstamps /))
      (tstamp 5ADFF0F5))
    (comp (ref C18)
      (value "1 uF ")
      (footprint Capacitor_SMD:C_0603_1608Metric_Pad0.99x1.00mm_HandSolder)
      (datasheet ~)
      (fields
        (field (name Mnf.) 06036C105KAT2A))
      (libsource (lib Device) (part C) (description "Unpolarized capacitor"))
      (sheetpath (names /) (tstamps /))
      (tstamp 5AE12E67))
    (comp (ref L2)
      (value "5.6 nH")
      (footprint Inductor_SMD:L_0603_1608Metric_Pad0.99x1.00mm_HandSolder)
      (datasheet ~)
      (fields
        (field (name Mnf.) " LQG18HN5N6S00D"))
      (libsource (lib Device) (part L) (description Inductor))
      (sheetpath (names /) (tstamps /))
      (tstamp 5AE12EFD))
    (comp (ref C12)
      (value "2.4 pF ")
      (footprint Capacitor_SMD:C_0603_1608Metric_Pad0.99x1.00mm_HandSolder)
      (datasheet ~)
      (fields
        (field (name Mnf.) GCM1885C1H2R4CA16D))
      (libsource (lib Device) (part C) (description "Unpolarized capacitor"))
      (sheetpath (names /) (tstamps /))
      (tstamp 5AE12FF5))
    (comp (ref C7)
      (value "100 pF")
      (footprint Capacitor_SMD:C_0603_1608Metric_Pad0.99x1.00mm_HandSolder)
      (datasheet ~)
      (fields
        (field (name Mnf.) 06036C101JAT2A))
      (libsource (lib Device) (part C) (description "Unpolarized capacitor"))
      (sheetpath (names /) (tstamps /))
      (tstamp 5AE24F8C))
    (comp (ref L3)
      (value "12 nH")
      (footprint Inductor_SMD:L_0603_1608Metric_Pad0.99x1.00mm_HandSolder)
      (datasheet ~)
      (fields
        (field (name Mnf.) "HK160812NJ-T "))
      (libsource (lib Device) (part L) (description Inductor))
      (sheetpath (names /) (tstamps /))
      (tstamp 5AE28108))
    (comp (ref C20)
      (value "4.7 uF")
      (footprint Capacitor_SMD:C_0603_1608Metric_Pad0.99x1.00mm_HandSolder)
      (datasheet ~)
      (fields
        (field (name Mnf.) GRM188R61C475KAAJD))
      (libsource (lib Device) (part C) (description "Unpolarized capacitor"))
      (sheetpath (names /) (tstamps /))
      (tstamp 5AE2818A))
    (comp (ref C21)
      (value "1000 pF ")
      (footprint Capacitor_SMD:C_0603_1608Metric_Pad0.99x1.00mm_HandSolder)
      (datasheet ~)
      (fields
        (field (name Mnf.) GCD188R71H102KA01D))
      (libsource (lib Device) (part C) (description "Unpolarized capacitor"))
      (sheetpath (names /) (tstamps /))
      (tstamp 5AE28208))
    (comp (ref J2)
      (value Conn_01x06)
      (footprint Connector_PinHeader_2.54mm:PinHeader_1x06_P2.54mm_Vertical)
      (datasheet ~)
      (libsource (lib Connector_Generic) (part Conn_01x06) (description "Generic connector, single row, 01x06, script generated (kicad-library-utils/schlib/autogen/connector/)"))
      (sheetpath (names /) (tstamps /))
      (tstamp 5AE32B43))
    (comp (ref JP1)
      (value SolderJumper_2_Open)
      (footprint Resistor_SMD:R_0603_1608Metric)
      (datasheet ~)
      (libsource (lib Jumper) (part SolderJumper_2_Open) (description "Solder Jumper, 2-pole, open"))
      (sheetpath (names /) (tstamps /))
      (tstamp 5AE4EF9E))
    (comp (ref JP2)
      (value SolderJumper_2_Open)
      (footprint Resistor_SMD:R_0603_1608Metric)
      (datasheet ~)
      (libsource (lib Jumper) (part SolderJumper_2_Open) (description "Solder Jumper, 2-pole, open"))
      (sheetpath (names /) (tstamps /))
      (tstamp 5AE50470))
    (comp (ref JP3)
      (value SolderJumper_2_Open)
      (footprint Jumper:SolderJumper-2_P1.3mm_Open_TrianglePad1.0x1.5mm)
      (datasheet ~)
      (libsource (lib Jumper) (part SolderJumper_2_Open) (description "Solder Jumper, 2-pole, open"))
      (sheetpath (names /) (tstamps /))
      (tstamp 5AE55045))
    (comp (ref TP2)
      (value Test_Point)
      (footprint TestPoint:TestPoint_Pad_D2.0mm)
      (datasheet ~)
      (libsource (lib pa_devboard-rescue) (part Test_Point-Connector) (description ""))
      (sheetpath (names /) (tstamps /))
      (tstamp 5AE5BB9C))
    (comp (ref TP1)
      (value Test_Point)
      (footprint TestPoint:TestPoint_Pad_D2.0mm)
      (datasheet ~)
      (libsource (lib pa_devboard-rescue) (part Test_Point-Connector) (description ""))
      (sheetpath (names /) (tstamps /))
      (tstamp 5AE5E877))
    (comp (ref J1)
      (value Conn_Coaxial)
      (footprint lsf-kicad-lib:Conn_SMA_Molex_73251-1150)
      (fields
        (field (name Mnf.) "73251-1150 "))
      (libsource (lib pa_devboard-rescue) (part Conn_Coaxial-Connector_Specialized) (description ""))
      (sheetpath (names /) (tstamps /))
      (tstamp 5ADF8AD6))
    (comp (ref R4)
      (value R)
      (footprint Resistor_SMD:R_0603_1608Metric)
      (datasheet ~)
      (libsource (lib Device) (part R) (description Resistor))
      (sheetpath (names /) (tstamps /))
      (tstamp 5DA4259F))
    (comp (ref R5)
      (value R)
      (footprint Resistor_SMD:R_0603_1608Metric)
      (datasheet ~)
      (libsource (lib Device) (part R) (description Resistor))
      (sheetpath (names /) (tstamps /))
      (tstamp 5DA44D9F))
    (comp (ref C6)
      (value "100 pF ")
      (footprint Capacitor_SMD:C_0603_1608Metric_Pad0.99x1.00mm_HandSolder)
      (datasheet ~)
      (fields
        (field (name Mnf.) 06036C101JAT2A))
      (libsource (lib Device) (part C) (description "Unpolarized capacitor"))
      (sheetpath (names /) (tstamps /))
      (tstamp 5AE00842))
    (comp (ref R6)
      (value R)
      (footprint Resistor_SMD:R_0603_1608Metric)
      (datasheet ~)
      (libsource (lib Device) (part R) (description Resistor))
      (sheetpath (names /) (tstamps /))
      (tstamp 5DAF9677))
    (comp (ref R3)
      (value R)
      (footprint Resistor_SMD:R_0603_1608Metric)
      (datasheet ~)
      (libsource (lib Device) (part R) (description Resistor))
      (sheetpath (names /) (tstamps /))
      (tstamp 5D9E1AC3)))
  (libparts
    (libpart (lib Connector_Generic) (part Conn_01x06)
      (description "Generic connector, single row, 01x06, script generated (kicad-library-utils/schlib/autogen/connector/)")
      (docs ~)
      (footprints
        (fp Connector*:*_1x??_*))
      (fields
        (field (name Reference) J)
        (field (name Value) Conn_01x06))
      (pins
        (pin (num 1) (name Pin_1) (type passive))
        (pin (num 2) (name Pin_2) (type passive))
        (pin (num 3) (name Pin_3) (type passive))
        (pin (num 4) (name Pin_4) (type passive))
        (pin (num 5) (name Pin_5) (type passive))
        (pin (num 6) (name Pin_6) (type passive))))
    (libpart (lib Device) (part C)
      (description "Unpolarized capacitor")
      (docs ~)
      (footprints
        (fp C_*))
      (fields
        (field (name Reference) C)
        (field (name Value) C))
      (pins
        (pin (num 1) (name ~) (type passive))
        (pin (num 2) (name ~) (type passive))))
    (libpart (lib Device) (part L)
      (description Inductor)
      (docs ~)
      (footprints
        (fp Choke_*)
        (fp *Coil*)
        (fp Inductor_*)
        (fp L_*))
      (fields
        (field (name Reference) L)
        (field (name Value) L))
      (pins
        (pin (num 1) (name 1) (type passive))
        (pin (num 2) (name 2) (type passive))))
    (libpart (lib Device) (part R)
      (description Resistor)
      (docs ~)
      (footprints
        (fp R_*))
      (fields
        (field (name Reference) R)
        (field (name Value) R))
      (pins
        (pin (num 1) (name ~) (type passive))
        (pin (num 2) (name ~) (type passive))))
    (libpart (lib Jumper) (part SolderJumper_2_Open)
      (description "Solder Jumper, 2-pole, open")
      (docs ~)
      (footprints
        (fp SolderJumper*Open*))
      (fields
        (field (name Reference) JP)
        (field (name Value) SolderJumper_2_Open))
      (pins
        (pin (num 1) (name A) (type passive))
        (pin (num 2) (name B) (type passive))))
    (libpart (lib lsd-kicad) (part MMZ09332B)
      (description "High Efficiency/Linearity Amplifier")
      (fields
        (field (name Reference) U)
        (field (name Value) MMZ09332B)
        (field (name Footprint) Housings_DFN_QFN:QFN-12-1EP_3x3mm_Pitch0.5mm)
        (field (name Datasheet) https://www.mouser.com/ds/2/302/a-1126961.pdf))
      (pins
        (pin (num 1) (name VBA1) (type input))
        (pin (num 2) (name VBIAS) (type input))
        (pin (num 3) (name RFin) (type input))
        (pin (num 6) (name PDET) (type input))
        (pin (num 7) (name VCC2/RFOUT) (type input))
        (pin (num 8) (name VCC2/RFOUT) (type input))
        (pin (num 9) (name VCC2/RFOUT) (type input))
        (pin (num 10) (name Power_Down) (type input))
        (pin (num 11) (name VCC1) (type input))
        (pin (num 12) (name VBA2) (type input))
        (pin (num 13) (name GND) (type power_in))))
    (libpart (lib pa_devboard-rescue) (part Conn_Coaxial-Connector_Specialized)
      (footprints
        (fp *BNC*)
        (fp *SMA*)
        (fp *SMB*)
        (fp *SMC*)
        (fp *Cinch*))
      (fields
        (field (name Reference) J)
        (field (name Value) Conn_Coaxial-Connector_Specialized))
      (pins
        (pin (num 1) (name In) (type passive))
        (pin (num 2) (name Ext) (type passive))))
    (libpart (lib pa_devboard-rescue) (part Test_Point-Connector)
      (footprints
        (fp Pin*)
        (fp Test*))
      (fields
        (field (name Reference) TP)
        (field (name Value) Test_Point-Connector))
      (pins
        (pin (num 1) (name 1) (type passive)))))
  (libraries
    (library (logical Connector_Generic)
      (uri /usr/share/kicad/library/Connector_Generic.lib))
    (library (logical Device)
      (uri /usr/share/kicad/library/Device.lib))
    (library (logical Jumper)
      (uri /usr/share/kicad/library/Jumper.lib))
    (library (logical lsd-kicad)
      (uri /home/azisi/Documents/UPSat/qubik/qubik-rf/pa_devboard/pa_devboard/lsf-kicad-lib/lsd-kicad.lib))
    (library (logical pa_devboard-rescue)
      (uri /home/azisi/Documents/UPSat/qubik/qubik-rf/pa_devboard/pa_devboard/pa_devboard-rescue.lib)))
  (nets
    (net (code 1) (name GND)
      (node (ref J1) (pin 2))
      (node (ref TP1) (pin 1))
      (node (ref JP3) (pin 2))
      (node (ref R6) (pin 1))
      (node (ref C16) (pin 1))
      (node (ref C13) (pin 2))
      (node (ref C12) (pin 2))
      (node (ref C18) (pin 2))
      (node (ref U1) (pin 13))
      (node (ref J4) (pin 2))
      (node (ref C4) (pin 2))
      (node (ref C3) (pin 2))
      (node (ref L4) (pin 2))
      (node (ref C7) (pin 1))
      (node (ref J2) (pin 1))
      (node (ref C6) (pin 1))
      (node (ref C21) (pin 2))
      (node (ref C20) (pin 2))
      (node (ref J2) (pin 6)))
    (net (code 2) (name VBIAS)
      (node (ref C6) (pin 2))
      (node (ref R4) (pin 2))
      (node (ref C16) (pin 2))
      (node (ref U1) (pin 2))
      (node (ref J2) (pin 2))
      (node (ref JP1) (pin 1))
      (node (ref R5) (pin 1))
      (node (ref JP2) (pin 1)))
    (net (code 3) (name VCC1)
      (node (ref JP1) (pin 2))
      (node (ref C18) (pin 1))
      (node (ref L2) (pin 1))
      (node (ref J2) (pin 3)))
    (net (code 4) (name PDC)
      (node (ref J2) (pin 4))
      (node (ref U1) (pin 10))
      (node (ref JP3) (pin 1))
      (node (ref C7) (pin 2)))
    (net (code 5) (name "Net-(L3-Pad1)")
      (node (ref U1) (pin 9))
      (node (ref L3) (pin 1)))
    (net (code 6) (name VCC2)
      (node (ref C20) (pin 1))
      (node (ref L3) (pin 2))
      (node (ref J2) (pin 5))
      (node (ref JP2) (pin 2))
      (node (ref C21) (pin 1)))
    (net (code 7) (name "Net-(R2-Pad2)")
      (node (ref R2) (pin 2))
      (node (ref R4) (pin 1)))
    (net (code 8) (name "Net-(R1-Pad2)")
      (node (ref R1) (pin 2))
      (node (ref R5) (pin 2)))
    (net (code 9) (name "Net-(L1-Pad1)")
      (node (ref L1) (pin 1))
      (node (ref R3) (pin 1))
      (node (ref R6) (pin 2)))
    (net (code 10) (name "Net-(J1-Pad1)")
      (node (ref J1) (pin 1))
      (node (ref R3) (pin 2)))
    (net (code 11) (name "Net-(L1-Pad2)")
      (node (ref L1) (pin 2))
      (node (ref U1) (pin 3)))
    (net (code 12) (name "Net-(C2-Pad1)")
      (node (ref C2) (pin 1))
      (node (ref U1) (pin 8))
      (node (ref U1) (pin 7)))
    (net (code 13) (name "Net-(C3-Pad1)")
      (node (ref C4) (pin 1))
      (node (ref L5) (pin 2))
      (node (ref C3) (pin 1))
      (node (ref J4) (pin 1)))
    (net (code 14) (name "Net-(C2-Pad2)")
      (node (ref C2) (pin 2))
      (node (ref L5) (pin 1))
      (node (ref L4) (pin 1)))
    (net (code 15) (name "Net-(C12-Pad1)")
      (node (ref U1) (pin 11))
      (node (ref L2) (pin 2))
      (node (ref C12) (pin 1)))
    (net (code 16) (name "Net-(R2-Pad1)")
      (node (ref U1) (pin 12))
      (node (ref R2) (pin 1)))
    (net (code 17) (name PDET)
      (node (ref TP2) (pin 1))
      (node (ref U1) (pin 6))
      (node (ref C13) (pin 1)))
    (net (code 18) (name "Net-(R1-Pad1)")
      (node (ref R1) (pin 1))
      (node (ref U1) (pin 1)))))