!Murata Part Number: GCM1885C1H180JA16
!These Parameters are Measured in Series Mode Connection
!       o--ll--o
!Port1            Port2
!       o------o
!Operation Temp=25[degC], DC Bias Voltage=0[V]
!Freq. Start=100[MHz] Stop=8.5[GHz], 401[Steps]
# Hz S RI R 50
!Freq.(Hz) S11(Real) S11(Imag) S21(Real) S21(Imag) S12(Real) S12(Imag) S22(Real) S22(Imag)
1.0E8 0.43685665401224466 -0.4952380393196073 0.5631433459877553 0.4952380393196073 0.5631433459877553 0.4952380393196073 0.43685665401224466 -0.4952380393196073
1.21E8 0.3456681332919978 -0.4746522366782615 0.6543318667080021 0.4746522366782615 0.6543318667080021 0.4746522366782615 0.3456681332919978 -0.4746522366782615
1.42E8 0.27653707576305975 -0.4461691184643778 0.7234629242369403 0.4461691184643778 0.7234629242369403 0.4461691184643778 0.27653707576305975 -0.4461691184643778
1.63E8 0.2241645969669907 -0.4157217493523803 0.7758354030330095 0.4157217493523803 0.7758354030330095 0.4157217493523803 0.2241645969669907 -0.4157217493523803
1.84E8 0.18415689485106781 -0.38609892262118023 0.8158431051489321 0.38609892262118023 0.8158431051489321 0.38609892262118023 0.18415689485106781 -0.38609892262118023
2.05E8 0.15322106144056336 -0.3584710084711277 0.8467789385594366 0.3584710084711277 0.8467789385594366 0.3584710084711277 0.15322106144056336 -0.3584710084711277
2.26E8 0.12897721478908972 -0.33321550841544706 0.8710227852109103 0.33321550841544706 0.8710227852109103 0.33321550841544706 0.12897721478908972 -0.33321550841544706
2.47E8 0.10972171385114238 -0.3103390214913187 0.8902782861488576 0.3103390214913187 0.8902782861488576 0.3103390214913187 0.10972171385114238 -0.3103390214913187
2.68E8 0.09423161323335466 -0.2896871910597216 0.9057683867666453 0.2896871910597216 0.9057683867666453 0.2896871910597216 0.09423161323335466 -0.2896871910597216
2.89E8 0.08162140208407821 -0.2710470906271944 0.9183785979159219 0.2710470906271944 0.9183785979159219 0.2710470906271944 0.08162140208407821 -0.2710470906271944
3.1E8 0.07124258165989376 -0.25419575286618057 0.9287574183401063 0.25419575286618057 0.9287574183401063 0.25419575286618057 0.07124258165989376 -0.25419575286618057
3.31E8 0.06261430193104305 -0.23892191301045496 0.9373856980689569 0.23892191301045496 0.9373856980689569 0.23892191301045496 0.06261430193104305 -0.23892191301045496
3.52E8 0.055375506696705955 -0.22503455642281106 0.944624493303294 0.22503455642281106 0.944624493303294 0.22503455642281106 0.055375506696705955 -0.22503455642281106
3.73E8 0.04925173241534412 -0.21236509897227981 0.9507482675846557 0.21236509897227981 0.9507482675846557 0.21236509897227981 0.04925173241534412 -0.21236509897227981
3.94E8 0.0440318649551702 -0.20076663168151074 0.9559681350448297 0.20076663168151074 0.9559681350448297 0.20076663168151074 0.0440318649551702 -0.20076663168151074
4.15E8 0.03955169295112962 -0.19011194439523 0.9604483070488702 0.19011194439523 0.9604483070488702 0.19011194439523 0.03955169295112962 -0.19011194439523
4.36E8 0.035682137349461816 -0.1802911709751429 0.9643178626505381 0.1802911709751429 0.9643178626505381 0.1802911709751429 0.035682137349461816 -0.1802911709751429
4.57E8 0.032320730126168 -0.17120945437716453 0.9676792698738321 0.17120945437716453 0.9676792698738321 0.17120945437716453 0.032320730126168 -0.17120945437716453
4.78E8 0.029385374974146672 -0.1627848047294377 0.9706146250258534 0.1627848047294377 0.9706146250258534 0.1627848047294377 0.029385374974146672 -0.1627848047294377
4.99E8 0.026809728411967357 -0.15494621097219202 0.9731902715880326 0.15494621097219202 0.9731902715880326 0.15494621097219202 0.026809728411967357 -0.15494621097219202
5.2E8 0.024539744237854384 -0.14763201221453404 0.9754602557621455 0.14763201221453404 0.9754602557621455 0.14763201221453404 0.024539744237854384 -0.14763201221453404
5.41E8 0.022531062187457762 -0.14078851046149446 0.9774689378125424 0.14078851046149446 0.9774689378125424 0.14078851046149446 0.022531062187457762 -0.14078851046149446
5.62E8 0.020747015593592932 -0.13436879703959617 0.979252984406407 0.13436879703959617 0.979252984406407 0.13436879703959617 0.020747015593592932 -0.13436879703959617
5.83E8 0.019157097467858486 -0.12833176320351022 0.9808429025321417 0.12833176320351022 0.9808429025321417 0.12833176320351022 0.019157097467858486 -0.12833176320351022
6.04E8 0.01773576933297661 -0.12264126703056163 0.9822642306670235 0.12264126703056163 0.9822642306670235 0.12264126703056163 0.01773576933297661 -0.12264126703056163
6.25E8 0.0164615286617732 -0.1172654317404352 0.9835384713382267 0.1172654317404352 0.9835384713382267 0.1172654317404352 0.0164615286617732 -0.1172654317404352
6.46E8 0.015316173132175339 -0.11217605397993273 0.9846838268678246 0.11217605397993273 0.9846838268678246 0.11217605397993273 0.015316173132175339 -0.11217605397993273
6.67E8 0.014284215910328487 -0.10734810389483822 0.9857157840896714 0.10734810389483822 0.9857157840896714 0.10734810389483822 0.014284215910328487 -0.10734810389483822
6.88E8 0.013352417737429284 -0.10275930176330382 0.9866475822625708 0.10275930176330382 0.9866475822625708 0.10275930176330382 0.013352417737429284 -0.10275930176330382
7.09E8 0.012509410026838407 -0.09838975852198081 0.9874905899731617 0.09838975852198081 0.9874905899731617 0.09838975852198081 0.012509410026838407 -0.09838975852198081
7.3E8 0.011745389378197938 -0.09422166968165611 0.9882546106218022 0.09422166968165611 0.9882546106218022 0.09422166968165611 0.011745389378197938 -0.09422166968165611
7.51E8 0.011051868512648274 -0.09023905393868266 0.9889481314873516 0.09023905393868266 0.9889481314873516 0.09023905393868266 0.011051868512648274 -0.09023905393868266
7.72E8 0.010421472069171454 -0.0864275292881508 0.9895785279308282 0.0864275292881508 0.9895785279308282 0.0864275292881508 0.010421472069171454 -0.0864275292881508
7.93E8 0.009847768289469405 -0.0827741206816203 0.9901522317105307 0.0827741206816203 0.9901522317105307 0.0827741206816203 0.009847768289469405 -0.0827741206816203
8.14E8 0.009325129581312564 -0.07926709428974862 0.9906748704186873 0.07926709428974862 0.9906748704186873 0.07926709428974862 0.009325129581312564 -0.07926709428974862
8.35E8 0.008848616449201065 -0.07589581426636242 0.9911513835507988 0.07589581426636242 0.9911513835507988 0.07589581426636242 0.008848616449201065 -0.07589581426636242
8.56E8 0.008413880433596985 -0.07265061859778615 0.9915861195664031 0.07265061859778615 0.9915861195664031 0.07265061859778615 0.008413880433596985 -0.07265061859778615
8.77E8 0.008017082591643932 -0.06952271118657534 0.991982917408356 0.06952271118657534 0.991982917408356 0.06952271118657534 0.008017082591643932 -0.06952271118657534
8.98E8 0.0076548247463968004 -0.06650406778448884 0.9923451752536032 0.06650406778448884 0.9923451752536032 0.06650406778448884 0.0076548247463968004 -0.06650406778448884
9.19E8 0.007324091275064976 -0.06358735377383322 0.992675908724935 0.06358735377383322 0.992675908724935 0.06358735377383322 0.007324091275064976 -0.06358735377383322
9.4E8 0.007022199634700097 -0.060765852114112916 0.9929778003652999 0.060765852114112916 0.9929778003652999 0.060765852114112916 0.007022199634700097 -0.060765852114112916
9.61E8 0.006746758162515536 -0.05803340003433726 0.9932532418374842 0.05803340003433726 0.9932532418374842 0.05803340003433726 0.006746758162515536 -0.05803340003433726
9.82E8 0.00649562995757682 -0.055384333270203125 0.993504370042423 0.055384333270203125 0.993504370042423 0.055384333270203125 0.00649562995757682 -0.055384333270203125
1.003E9 0.0062669018661541025 -0.05281343682769528 0.9937330981338459 0.05281343682769528 0.9937330981338459 0.05281343682769528 0.0062669018661541025 -0.05281343682769528
1.024E9 0.006058857766220646 -0.050315901406918585 0.9939411422337795 0.050315901406918585 0.9939411422337795 0.050315901406918585 0.006058857766220646 -0.050315901406918585
1.045E9 0.0058699554863793045 -0.04788728474748491 0.9941300445136206 0.04788728474748491 0.9941300445136206 0.04788728474748491 0.0058699554863793045 -0.04788728474748491
1.066E9 0.005698806807840902 -0.04552347726383776 0.9943011931921589 0.04552347726383776 0.9943011931921589 0.04552347726383776 0.005698806807840902 -0.04552347726383776
1.087E9 0.005544160090362874 -0.04322067142902468 0.9944558399096372 0.04322067142902468 0.9944558399096372 0.04322067142902468 0.005544160090362874 -0.04322067142902468
1.108E9 0.005404885138504103 -0.04097533444149715 0.994595114861496 0.04097533444149715 0.994595114861496 0.04097533444149715 0.005404885138504103 -0.04097533444149715
1.129E9 0.005279959986479364 -0.03878418377389755 0.9947200400135207 0.03878418377389755 0.9947200400135207 0.03878418377389755 0.005279959986479364 -0.03878418377389755
1.15E9 0.005168459330920623 -0.03664416525741149 0.9948315406690792 0.03664416525741149 0.9948315406690792 0.03664416525741149 0.005168459330920623 -0.03664416525741149
1.171E9 0.0050695443830478075 -0.03455243340172683 0.9949304556169519 0.03455243340172683 0.9949304556169519 0.03455243340172683 0.0050695443830478075 -0.03455243340172683
1.192E9 0.004982453946770122 -0.03250633369025919 0.9950175460532299 0.03250633369025919 0.9950175460532299 0.03250633369025919 0.004982453946770122 -0.03250633369025919
1.213E9 0.0049064965584012165 -0.030503386624173106 0.9950935034415987 0.030503386624173106 0.9950935034415987 0.030503386624173106 0.0049064965584012165 -0.030503386624173106
1.234E9 0.004841043548037365 -0.028541273317750308 0.9951589564519625 0.028541273317750308 0.9951589564519625 0.028541273317750308 0.004841043548037365 -0.028541273317750308
1.255E9 0.004785522903071647 -0.02661782247258417 0.9952144770969285 0.02661782247258417 0.9952144770969285 0.02661782247258417 0.004785522903071647 -0.02661782247258417
1.276E9 0.00473941383148973 -0.024730998579542085 0.9952605861685101 0.024730998579542085 0.9952605861685101 0.024730998579542085 0.00473941383148973 -0.024730998579542085
1.297E9 0.0047022419370751235 -0.02287889121595491 0.9952977580629251 0.02287889121595491 0.9952977580629251 0.02287889121595491 0.0047022419370751235 -0.02287889121595491
1.318E9 0.0046735749309008015 -0.02105970532150793 0.9953264250690992 0.02105970532150793 0.9953264250690992 0.02105970532150793 0.0046735749309008015 -0.02105970532150793
1.339E9 0.0046530188138735095 -0.0192717523501873 0.9953469811861265 0.0192717523501873 0.9953469811861265 0.0192717523501873 0.0046530188138735095 -0.0192717523501873
1.36E9 0.004640214473933021 -0.017513442207689578 0.9953597855260669 0.017513442207689578 0.9953597855260669 0.017513442207689578 0.004640214473933021 -0.017513442207689578
1.381E9 0.004634834649043895 -0.015783275894192948 0.995365165350956 0.015783275894192948 0.995365165350956 0.015783275894192948 0.004634834649043895 -0.015783275894192948
1.402E9 0.004636581213559421 -0.014079838781536983 0.9953634187864409 0.014079838781536983 0.9953634187864409 0.014079838781536983 0.004636581213559421 -0.014079838781536983
1.423E9 0.004645182751059401 -0.012401794461851903 0.9953548172489408 0.012401794461851903 0.9953548172489408 0.012401794461851903 0.004645182751059401 -0.012401794461851903
1.444E9 0.004660392381508069 -0.01074787911167535 0.995339607618492 0.01074787911167535 0.995339607618492 0.01074787911167535 0.004660392381508069 -0.01074787911167535
1.465E9 0.00468198581466519 -0.009116896321733752 0.9953180141853348 0.009116896321733752 0.9953180141853348 0.009116896321733752 0.00468198581466519 -0.009116896321733752
1.486E9 0.004709759605211885 -0.007507712347958058 0.9952902403947881 0.007507712347958058 0.9952902403947881 0.007507712347958058 0.004709759605211885 -0.007507712347958058
1.507E9 0.004743529588106377 -0.005919251744052617 0.9952564704118936 0.005919251744052617 0.9952564704118936 0.005919251744052617 0.004743529588106377 -0.005919251744052617
1.528E9 0.004783129475333837 -0.0043504933401222 0.9952168705246661 0.0043504933401222 0.9952168705246661 0.0043504933401222 0.004783129475333837 -0.0043504933401222
1.549E9 0.004828409597517815 -0.0028004665355616885 0.9951715904024823 0.0028004665355616885 0.9951715904024823 0.0028004665355616885 0.004828409597517815 -0.0028004665355616885
1.57E9 0.004879235775868288 -0.001268247877686113 0.9951207642241316 0.001268247877686113 0.9951207642241316 0.001268247877686113 0.004879235775868288 -0.001268247877686113
1.591E9 0.004935488311695274 2.470420995201997E-4 0.9950645116883048 -2.470420995201997E-4 0.9950645116883048 -2.470420995201997E-4 0.004935488311695274 2.470420995201997E-4
1.612E9 0.004997061082253205 0.0017462417995798107 0.9950029389177467 -0.0017462417995798107 0.9950029389177467 -0.0017462417995798107 0.004997061082253205 0.0017462417995798107
1.633E9 0.005063860733030192 0.0032301512713776444 0.9949361392669699 -0.0032301512713776444 0.9949361392669699 -0.0032301512713776444 0.005063860733030192 0.0032301512713776444
1.654E9 0.005135805957783963 0.004699534719407736 0.994864194042216 -0.004699534719407736 0.994864194042216 -0.004699534719407736 0.005135805957783963 0.004699534719407736
1.675E9 0.0052128268586751104 0.006155122833302511 0.9947871731413249 -0.006155122833302511 0.9947871731413249 -0.006155122833302511 0.0052128268586751104 0.006155122833302511
1.696E9 0.0052948643797770135 0.007597614951907045 0.9947051356202229 -0.007597614951907045 0.9947051356202229 -0.007597614951907045 0.0052948643797770135 0.007597614951907045
1.717E9 0.005381869808067235 0.009027681075702619 0.9946181301919328 -0.009027681075702619 0.9946181301919328 -0.009027681075702619 0.005381869808067235 0.009027681075702619
1.738E9 0.005473804336741317 0.01044596374007628 0.9945261956632588 -0.01044596374007628 0.9945261956632588 -0.01044596374007628 0.005473804336741317 0.01044596374007628
1.759E9 0.005570638686348931 0.01185307976075628 0.9944293613136509 -0.01185307976075628 0.9944293613136509 -0.01185307976075628 0.005570638686348931 0.01185307976075628
1.78E9 0.005672352779845126 0.013249621861674868 0.9943276472201549 -0.013249621861674868 0.9943276472201549 -0.013249621861674868 0.005672352779845126 0.013249621861674868
1.801E9 0.00577893546818498 0.014636160194563153 0.9942210645318151 -0.014636160194563153 0.9942210645318151 -0.014636160194563153 0.00577893546818498 0.014636160194563153
1.822E9 0.00589038430357679 0.016013243758717093 0.9941096156964233 -0.016013243758717093 0.9941096156964233 -0.016013243758717093 0.00589038430357679 0.016013243758717093
1.843E9 0.006006705357953775 0.01738140172858836 0.9939932946420462 -0.01738140172858836 0.9939932946420462 -0.01738140172858836 0.006006705357953775 0.01738140172858836
1.864E9 0.006127913084633827 0.018741144696138946 0.993872086915366 -0.018741144696138946 0.993872086915366 -0.018741144696138946 0.006127913084633827 0.018741144696138946
1.885E9 0.0062540302215164136 0.020092965834243384 0.9937459697784835 -0.020092965834243384 0.9937459697784835 -0.020092965834243384 0.0062540302215164136 0.020092965834243384
1.906E9 0.006385087734520694 0.02143734198682523 0.993614912265479 -0.02143734198682523 0.993614912265479 -0.02143734198682523 0.006385087734520694 0.02143734198682523
1.927E9 0.006521124800303405 0.022774734690858965 0.9934788751996966 -0.022774734690858965 0.9934788751996966 -0.022774734690858965 0.006521124800303405 0.022774734690858965
1.948E9 0.006662188827613614 0.024105591134857846 0.9933378111723863 -0.024105591134857846 0.9933378111723863 -0.024105591134857846 0.006662188827613614 0.024105591134857846
1.969E9 0.006808335516947558 0.02543034505798921 0.9931916644830524 -0.02543034505798921 0.9931916644830524 -0.02543034505798921 0.006808335516947558 0.02543034505798921
1.99E9 0.0069596289584639955 0.02674941759350912 0.9930403710415361 -0.02674941759350912 0.9930403710415361 -0.02674941759350912 0.0069596289584639955 0.02674941759350912
2.011E9 0.007116141768412316 0.02806321805978159 0.9928838582315878 -0.02806321805978159 0.9928838582315878 -0.02806321805978159 0.007116141768412316 0.02806321805978159
2.032E9 0.007277955264614793 0.029372144701740346 0.9927220447353852 -0.029372144701740346 0.9927220447353852 -0.029372144701740346 0.007277955264614793 0.029372144701740346
2.053E9 0.007445159681834158 0.030676585385254595 0.9925548403181658 -0.030676585385254595 0.9925548403181658 -0.030676585385254595 0.007445159681834158 0.030676585385254595
2.074E9 0.007617854428150691 0.031976918246474154 0.9923821455718493 -0.031976918246474154 0.9923821455718493 -0.031976918246474154 0.007617854428150691 0.031976918246474154
2.095E9 0.007796148383772192 0.033273512297844594 0.9922038516162278 -0.033273512297844594 0.9922038516162278 -0.033273512297844594 0.007796148383772192 0.033273512297844594
2.116E9 0.00798016024400823 0.03456672799209663 0.9920198397559917 -0.03456672799209663 0.9920198397559917 -0.03456672799209663 0.00798016024400823 0.03456672799209663
2.137E9 0.008170018908459566 0.03585691774511955 0.9918299810915405 -0.03585691774511955 0.9918299810915405 -0.03585691774511955 0.008170018908459566 0.03585691774511955
2.158E9 0.008365863918807467 0.03714442641822065 0.9916341360811926 -0.03714442641822065 0.9916341360811926 -0.03714442641822065 0.008365863918807467 0.03714442641822065
2.179E9 0.008567845947938146 0.03842959175984414 0.9914321540520619 -0.03842959175984414 0.9914321540520619 -0.03842959175984414 0.008567845947938146 0.03842959175984414
2.2E9 0.00877612734350791 0.03971274480636745 0.991223872656492 -0.03971274480636745 0.991223872656492 -0.03971274480636745 0.00877612734350791 0.03971274480636745
2.221E9 0.008990882729446877 0.04099421024110359 0.9910091172705531 -0.04099421024110359 0.9910091172705531 -0.04099421024110359 0.008990882729446877 0.04099421024110359
2.242E9 0.009212299669316327 0.04227430671010326 0.9907877003306839 -0.04227430671010326 0.9907877003306839 -0.04227430671010326 0.009212299669316327 0.04227430671010326
2.263E9 0.009440579395879247 0.04355334709276394 0.9905594206041209 -0.04355334709276394 0.9905594206041209 -0.04355334709276394 0.009440579395879247 0.04355334709276394
2.284E9 0.009675937611718002 0.044831638724601754 0.9903240623882821 -0.044831638724601754 0.9903240623882821 -0.044831638724601754 0.009675937611718002 0.044831638724601754
2.305E9 0.009918605366238958 0.0461094835688116 0.9900813946337612 -0.0461094835688116 0.9900813946337612 -0.0461094835688116 0.009918605366238958 0.0461094835688116
2.326E9 0.010168830014944124 0.047387178332421655 0.9898311699850557 -0.047387178332421655 0.9898311699850557 -0.047387178332421655 0.010168830014944124 0.047387178332421655
2.347E9 0.010426876267424895 0.048665014521916385 0.9895731237325751 -0.048665014521916385 0.9895731237325751 -0.048665014521916385 0.010426876267424895 0.048665014521916385
2.368E9 0.010693027331144276 0.04994327843214591 0.9893069726688557 -0.04994327843214591 0.9893069726688557 -0.04994327843214591 0.010693027331144276 0.04994327843214591
2.389E9 0.010967586158720805 0.051222251061127225 0.9890324138412792 -0.051222251061127225 0.9890324138412792 -0.051222251061127225 0.010967586158720805 0.051222251061127225
2.41E9 0.01125087680710915 0.052502207941958166 0.9887491231928907 -0.052502207941958166 0.9887491231928907 -0.052502207941958166 0.01125087680710915 0.052502207941958166
2.431E9 0.011543245917784955 0.053783418881468384 0.9884567540822152 -0.053783418881468384 0.9884567540822152 -0.053783418881468384 0.011543245917784955 0.053783418881468384
2.452E9 0.011845064327780477 0.05506614759339289 0.9881549356722195 -0.05506614759339289 0.9881549356722195 -0.05506614759339289 0.011845064327780477 0.05506614759339289
2.473E9 0.012156728822174192 0.05635065121173182 0.987843271177826 -0.05635065121173182 0.987843271177826 -0.05635065121173182 0.012156728822174192 0.05635065121173182
2.494E9 0.012478664039399276 0.057637179667501995 0.9875213359606009 -0.057637179667501995 0.9875213359606009 -0.057637179667501995 0.012478664039399276 0.057637179667501995
2.515E9 0.012811324541485945 0.058925974909242715 0.9871886754585139 -0.058925974909242715 0.9871886754585139 -0.058925974909242715 0.012811324541485945 0.058925974909242715
2.536E9 0.013155197062065947 0.06021726994433922 0.9868448029379341 -0.06021726994433922 0.9868448029379341 -0.06021726994433922 0.013155197062065947 0.06021726994433922
2.557E9 0.013510802945612006 0.061511287674401435 0.9864891970543882 -0.061511287674401435 0.9864891970543882 -0.061511287674401435 0.013510802945612006 0.061511287674401435
2.578E9 0.013878700791915659 0.06280823949349316 0.9861212992080843 -0.06280823949349316 0.9861212992080843 -0.06280823949349316 0.013878700791915659 0.06280823949349316
2.599E9 0.01425948932016564 0.06410832361284999 0.9857405106798345 -0.06410832361284999 0.9857405106798345 -0.06410832361284999 0.01425948932016564 0.06410832361284999
2.62E9 0.014653810467097373 0.0654117230697342 0.9853461895329025 -0.0654117230697342 0.9853461895329025 -0.0654117230697342 0.014653810467097373 0.0654117230697342
2.641E9 0.0150623527334422 0.06671860337112392 0.9849376472665576 -0.06671860337112392 0.9849376472665576 -0.06671860337112392 0.0150623527334422 0.06671860337112392
2.662E9 0.015485854792178764 0.06802910971486545 0.9845141452078211 -0.06802910971486545 0.9845141452078211 -0.06802910971486545 0.015485854792178764 0.06802910971486545
2.683E9 0.015925109370709446 0.06934336372156649 0.9840748906292907 -0.06934336372156649 0.9840748906292907 -0.06934336372156649 0.015925109370709446 0.06934336372156649
2.704E9 0.016380967416829904 0.07066145959967916 0.9836190325831702 -0.07066145959967916 0.9836190325831702 -0.07066145959967916 0.016380967416829904 0.07066145959967916
2.725E9 0.016854342554946482 0.07198345965370301 0.9831456574450536 -0.07198345965370301 0.9831456574450536 -0.07198345965370301 0.016854342554946482 0.07198345965370301
2.746E9 0.017346215834062057 0.07330938903100029 0.9826537841659378 -0.07330938903100029 0.9826537841659378 -0.07330938903100029 0.017346215834062057 0.07330938903100029
2.767E9 0.017857640762131054 0.07463922958610707 0.982142359237869 -0.07463922958610707 0.982142359237869 -0.07463922958610707 0.017857640762131054 0.07463922958610707
2.788E9 0.018389748611891254 0.07597291272239115 0.9816102513881086 -0.07597291272239115 0.9816102513881086 -0.07597291272239115 0.018389748611891254 0.07597291272239115
2.809E9 0.01894375397046411 0.07731031104919343 0.9810562460295359 -0.07731031104919343 0.9810562460295359 -0.07731031104919343 0.01894375397046411 0.07731031104919343
2.83E9 0.019520960487935373 0.07865122866796555 0.9804790395120647 -0.07865122866796555 0.9804790395120647 -0.07865122866796555 0.019520960487935373 0.07865122866796555
2.851E9 0.020122766757594474 0.07999538987319689 0.9798772332424054 -0.07999538987319689 0.9798772332424054 -0.07999538987319689 0.020122766757594474 0.07999538987319689
2.872E9 0.02075067223104003 0.08134242602302662 0.9792493277689598 -0.08134242602302662 0.9792493277689598 -0.08134242602302662 0.02075067223104003 0.08134242602302662
2.893E9 0.021406283033098602 0.08269186030042897 0.9785937169669013 -0.08269186030042897 0.9785937169669013 -0.08269186030042897 0.021406283033098602 0.08269186030042897
2.914E9 0.022091317492166147 0.08404309004906897 0.9779086825078339 -0.08404309004906897 0.9779086825078339 -0.08404309004906897 0.022091317492166147 0.08404309004906897
2.935E9 0.02280761113835656 0.08539536632905079 0.9771923888616434 -0.08539536632905079 0.9771923888616434 -0.08539536632905079 0.02280761113835656 0.08539536632905079
2.956E9 0.023557120841315612 0.08674777029808829 0.9764428791586843 -0.08674777029808829 0.9764428791586843 -0.08674777029808829 0.023557120841315612 0.08674777029808829
2.977E9 0.02434192765763356 0.08809918598519974 0.9756580723423665 -0.08809918598519974 0.9756580723423665 -0.08809918598519974 0.02434192765763356 0.08809918598519974
2.998E9 0.025164237829625135 0.0894482689900921 0.9748357621703749 -0.0894482689900921 0.9748357621703749 -0.0894482689900921 0.025164237829625135 0.0894482689900921
3.019E9 0.026026381217247707 0.09079341061681026 0.9739736187827522 -0.09079341061681026 0.9739736187827522 -0.09079341061681026 0.026026381217247707 0.09079341061681026
3.04E9 0.026930806246821298 0.09213269694203662 0.9730691937531787 -0.09213269694203662 0.9730691937531787 -0.09213269694203662 0.026930806246821298 0.09213269694203662
3.061E9 0.02788007021726408 0.0934638623367039 0.972119929782736 -0.0934638623367039 0.972119929782736 -0.0934638623367039 0.02788007021726408 0.0934638623367039
3.082E9 0.028876823510031742 0.09478423701836684 0.9711231764899683 -0.09478423701836684 0.9711231764899683 -0.09478423701836684 0.028876823510031742 0.09478423701836684
3.103E9 0.029923785896958155 0.09609068833029671 0.9700762141030418 -0.09609068833029671 0.9700762141030418 -0.09609068833029671 0.029923785896958155 0.09609068833029671
3.124E9 0.031023712727091445 0.09737955564732824 0.9689762872729086 -0.09737955564732824 0.9689762872729086 -0.09737955564732824 0.031023712727091445 0.09737955564732824
3.145E9 0.03217934830022777 0.09864657913202046 0.967820651699772 -0.09864657913202046 0.967820651699772 -0.09864657913202046 0.03217934830022777 0.09864657913202046
3.166E9 0.033393363209843895 0.0998868230511424 0.9666066367901562 -0.0998868230511424 0.9666066367901562 -0.0998868230511424 0.033393363209843895 0.0998868230511424
3.187E9 0.034668271882998265 0.10109459506584756 0.9653317281170017 -0.10109459506584756 0.9653317281170017 -0.10109459506584756 0.034668271882998265 0.10109459506584756
3.208E9 0.036006326000726945 0.10226336389353181 0.963993673999273 -0.10226336389353181 0.963993673999273 -0.10226336389353181 0.036006326000726945 0.10226336389353181
3.229E9 0.037409379019770136 0.10338567907769457 0.9625906209802301 -0.10338567907769457 0.9625906209802301 -0.10338567907769457 0.037409379019770136 0.10338567907769457
3.25E9 0.038878716746219406 0.1044530983684224 0.9611212832537808 -0.1044530983684224 0.9611212832537808 -0.1044530983684224 0.038878716746219406 0.1044530983684224
3.271E9 0.040414848999539066 0.10545613047402863 0.9595851510004609 -0.10545613047402863 0.9595851510004609 -0.10545613047402863 0.040414848999539066 0.10545613047402863
3.292E9 0.04201725808560551 0.10638420372513774 0.9579827419143946 -0.10638420372513774 0.9579827419143946 -0.10638420372513774 0.04201725808560551 0.10638420372513774
3.313E9 0.04368410138313663 0.10722567446009872 0.9563158986168635 -0.10722567446009872 0.9563158986168635 -0.10722567446009872 0.04368410138313663 0.10722567446009872
3.334E9 0.0454118682312144 0.10796789254081655 0.9545881317687858 -0.10796789254081655 0.9545881317687858 -0.10796789254081655 0.0454118682312144 0.10796789254081655
3.355E9 0.047194995935466576 0.10859734500016856 0.9528050040645336 -0.10859734500016856 0.9528050040645336 -0.10859734500016856 0.047194995935466576 0.10859734500016856
3.376E9 0.04902545653244691 0.10909990179772565 0.9509745434675531 -0.10909990179772565 0.9509745434675531 -0.10909990179772565 0.04902545653244691 0.10909990179772565
3.397E9 0.05089233528978249 0.10946118906446994 0.9491076647102176 -0.10946118906446994 0.9491076647102176 -0.10946118906446994 0.05089233528978249 0.10946118906446994
3.418E9 0.05278143378102 0.10966711370299695 0.94721856621898 -0.10966711370299695 0.94721856621898 -0.10966711370299695 0.05278143378102 0.10966711370299695
3.439E9 0.05467494417190114 0.10970455708271017 0.945325055828099 -0.10970455708271017 0.945325055828099 -0.10970455708271017 0.05467494417190114 0.10970455708271017
3.46E9 0.05655125557456747 0.10956224299511057 0.9434487444254325 -0.10956224299511057 0.9434487444254325 -0.10956224299511057 0.05655125557456747 0.10956224299511057
3.481E9 0.05838496522159881 0.1092317644921802 0.9416150347784009 -0.1092317644921802 0.9416150347784009 -0.1092317644921802 0.05838496522159881 0.1092317644921802
3.502E9 0.06014717269498765 0.10870872526326318 0.9398528273050123 -0.10870872526326318 0.9398528273050123 -0.10870872526326318 0.06014717269498765 0.10870872526326318
3.523E9 0.061806129413881625 0.1079939154009037 0.9381938705861184 -0.1079939154009037 0.9381938705861184 -0.1079939154009037 0.061806129413881625 0.1079939154009037
3.544E9 0.0633282929405522 0.10709440336714625 0.9366717070594478 -0.10709440336714625 0.9366717070594478 -0.10709440336714625 0.0633282929405522 0.10709440336714625
3.565E9 0.06467979313552298 0.10602439378242128 0.935320206864477 -0.10602439378242128 0.935320206864477 -0.10602439378242128 0.06467979313552298 0.10602439378242128
3.586E9 0.06582825572019747 0.10480568518812342 0.9341717442798025 -0.10480568518812342 0.9341717442798025 -0.10480568518812342 0.06582825572019747 0.10480568518812342
3.607E9 0.06674485569103249 0.10346757444170455 0.9332551443089676 -0.10346757444170455 0.9332551443089676 -0.10346757444170455 0.06674485569103249 0.10346757444170455
3.628E9 0.06740640257458333 0.10204610250197521 0.9325935974254166 -0.10204610250197521 0.9325935974254166 -0.10204610250197521 0.06740640257458333 0.10204610250197521
3.649E9 0.06779721085745528 0.10058261941693646 0.9322027891425446 -0.10058261941693646 0.9322027891425446 -0.10058261941693646 0.06779721085745528 0.10058261941693646
3.67E9 0.06791050069511068 0.09912175240123534 0.932089499304889 -0.09912175240123534 0.932089499304889 -0.09912175240123534 0.06791050069511068 0.09912175240123534
3.691E9 0.06774911708133949 0.09770896755762531 0.9322508829186607 -0.09770896755762531 0.9322508829186607 -0.09770896755762531 0.06774911708133949 0.09770896755762531
3.712E9 0.06732544710854407 0.09638799585425938 0.9326745528914557 -0.09638799585425938 0.9326745528914557 -0.09638799585425938 0.06732544710854407 0.09638799585425938
3.733E9 0.06666053652207302 0.09519842460437472 0.9333394634779268 -0.09519842460437472 0.9333394634779268 -0.09519842460437472 0.06666053652207302 0.09519842460437472
3.754E9 0.06578252973611501 0.09417372725412909 0.9342174702638849 -0.09417372725412909 0.9342174702638849 -0.09417372725412909 0.06578252973611501 0.09417372725412909
3.775E9 0.06472465223286766 0.09333992433270291 0.9352753477671324 -0.09333992433270291 0.9352753477671324 -0.09333992433270291 0.06472465223286766 0.09333992433270291
3.796E9 0.06352300048916709 0.09271495890347531 0.9364769995108327 -0.09271495890347531 0.9364769995108327 -0.09271495890347531 0.06352300048916709 0.09271495890347531
3.817E9 0.062214397260739435 0.0923087587819627 0.9377856027392606 -0.0923087587819627 0.9377856027392606 -0.0923087587819627 0.062214397260739435 0.0923087587819627
3.838E9 0.060834519133133244 0.09212386951819855 0.9391654808668667 -0.09212386951819855 0.9391654808668667 -0.09212386951819855 0.060834519133133244 0.09212386951819855
3.859E9 0.0594164278698674 0.09215649060599579 0.9405835721301326 -0.09215649060599579 0.9405835721301326 -0.09215649060599579 0.0594164278698674 0.09215649060599579
3.88E9 0.057989557948879875 0.09239773434471371 0.94201044205112 -0.09239773434471371 0.94201044205112 -0.09239773434471371 0.057989557948879875 0.09239773434471371
3.901E9 0.05657914583284591 0.09283494457923235 0.943420854167154 -0.09283494457923235 0.943420854167154 -0.09283494457923235 0.05657914583284591 0.09283494457923235
3.922E9 0.05520604050840066 0.09345294896956811 0.9447939594915994 -0.09345294896956811 0.9447939594915994 -0.09345294896956811 0.05520604050840066 0.09345294896956811
3.943E9 0.05388681101861101 0.09423516133431863 0.9461131889813889 -0.09423516133431863 0.9461131889813889 -0.09423516133431863 0.05388681101861101 0.09423516133431863
3.964E9 0.052634061543296855 0.09516449076931509 0.9473659384567031 -0.09516449076931509 0.9473659384567031 -0.09516449076931509 0.052634061543296855 0.09516449076931509
3.985E9 0.05145687226687412 0.09622404638577284 0.9485431277331257 -0.09622404638577284 0.9485431277331257 -0.09622404638577284 0.05145687226687412 0.09622404638577284
4.006E9 0.05036129894792211 0.09739764884924527 0.9496387010520777 -0.09739764884924527 0.9496387010520777 -0.09739764884924527 0.05036129894792211 0.09739764884924527
4.027E9 0.049350881060292645 0.09867017303456366 0.9506491189397074 -0.09867017303456366 0.9506491189397074 -0.09867017303456366 0.049350881060292645 0.09867017303456366
4.048E9 0.048427124476127216 0.10002775188777122 0.9515728755238728 -0.10002775188777122 0.9515728755238728 -0.10002775188777122 0.048427124476127216 0.10002775188777122
4.069E9 0.04758993822377681 0.10145787220078493 0.9524100617762232 -0.10145787220078493 0.9524100617762232 -0.10145787220078493 0.04758993822377681 0.10145787220078493
4.09E9 0.046838015286146506 0.10294939046440599 0.9531619847138533 -0.10294939046440599 0.9531619847138533 -0.10294939046440599 0.046838015286146506 0.10294939046440599
4.111E9 0.04616915480399285 0.10449249284119957 0.9538308451960072 -0.10449249284119957 0.9538308451960072 -0.10449249284119957 0.04616915480399285 0.10449249284119957
4.132E9 0.04558052786534793 0.10607861868219709 0.9544194721346521 -0.10607861868219709 0.9544194721346521 -0.10607861868219709 0.04558052786534793 0.10607861868219709
4.153E9 0.04506889186964942 0.10770036257221562 0.9549311081303505 -0.10770036257221562 0.9549311081303505 -0.10770036257221562 0.04506889186964942 0.10770036257221562
4.174E9 0.04463075981023512 0.10935136598222205 0.955369240189765 -0.10935136598222205 0.955369240189765 -0.10935136598222205 0.04463075981023512 0.10935136598222205
4.195E9 0.04426253119518163 0.11102620637194109 0.9557374688048182 -0.11102620637194109 0.9557374688048182 -0.11102620637194109 0.04426253119518163 0.11102620637194109
4.216E9 0.04396059109291286 0.11272028902782132 0.9560394089070873 -0.11272028902782132 0.9560394089070873 -0.11272028902782132 0.04396059109291286 0.11272028902782132
4.237E9 0.043721383214071506 0.1144297449754689 0.9562786167859286 -0.1144297449754689 0.9562786167859286 -0.1144297449754689 0.043721383214071506 0.1144297449754689
4.258E9 0.0435414622087609 0.11615133687622001 0.956458537791239 -0.11615133687622001 0.956458537791239 -0.11615133687622001 0.0435414622087609 0.11615133687622001
4.279E9 0.04341752958683217 0.11788237380336064 0.956582470413168 -0.11788237380336064 0.956582470413168 -0.11788237380336064 0.04341752958683217 0.11788237380336064
4.3E9 0.04334645692912356 0.11962063510078931 0.9566535430708766 -0.11962063510078931 0.9566535430708766 -0.11962063510078931 0.04334645692912356 0.11962063510078931
4.321E9 0.043325299387255 0.12136430307526577 0.956674700612745 -0.12136430307526577 0.956674700612745 -0.12136430307526577 0.043325299387255 0.12136430307526577
4.342E9 0.04335130188497792 0.12311190399737341 0.9566486981150221 -0.12311190399737341 0.9566486981150221 -0.12311190399737341 0.04335130188497792 0.12311190399737341
4.363E9 0.04342189993809859 0.1248622567347301 0.9565781000619014 -0.1248622567347301 0.9565781000619014 -0.1248622567347301 0.04342189993809859 0.1248622567347301
4.384E9 0.04353471659790758 0.12661442827489003 0.9564652834020925 -0.12661442827489003 0.9564652834020925 -0.12661442827489003 0.04353471659790758 0.12661442827489003
4.405E9 0.043687556686275594 0.12836769538597562 0.9563124433137244 -0.12836769538597562 0.9563124433137244 -0.12836769538597562 0.043687556686275594 0.12836769538597562
4.426E9 0.04387839921903184 0.13012151168954064 0.9561216007809682 -0.13012151168954064 0.9561216007809682 -0.13012151168954064 0.04387839921903184 0.13012151168954064
4.447E9 0.04410538869776762 0.1318754794677706 0.9558946113022323 -0.1318754794677706 0.9558946113022323 -0.1318754794677706 0.04410538869776762 0.1318754794677706
4.468E9 0.04436682577933584 0.13362932558573895 0.955633174220664 -0.13362932558573895 0.955633174220664 -0.13362932558573895 0.04436682577933584 0.13362932558573895
4.489E9 0.04466115769864917 0.13538288097225848 0.9553388423013509 -0.13538288097225848 0.9553388423013509 -0.13538288097225848 0.04466115769864917 0.13538288097225848
4.51E9 0.044986968716698966 0.13713606316551522 0.9550130312833012 -0.13713606316551522 0.9550130312833012 -0.13713606316551522 0.044986968716698966 0.13713606316551522
4.531E9 0.04534297078596148 0.13888886148944876 0.9546570292140384 -0.13888886148944876 0.9546570292140384 -0.13888886148944876 0.04534297078596148 0.13888886148944876
4.552E9 0.045727994564541984 0.14064132448222888 0.9542720054354581 -0.14064132448222888 0.9542720054354581 -0.14064132448222888 0.045727994564541984 0.14064132448222888
4.573E9 0.046140980864456664 0.14239354924843597 0.9538590191355433 -0.14239354924843597 0.9538590191355433 -0.14239354924843597 0.046140980864456664 0.14239354924843597
4.594E9 0.04658097258510565 0.14414567245146914 0.9534190274148941 -0.14414567245146914 0.9534190274148941 -0.14414567245146914 0.04658097258510565 0.14414567245146914
4.615E9 0.047047107157632446 0.14589786270238142 0.9529528928423675 -0.14589786270238142 0.9529528928423675 -0.14589786270238142 0.047047107157632446 0.14589786270238142
4.636E9 0.04753860950743316 0.14765031413608315 0.9524613904925667 -0.14765031413608315 0.9524613904925667 -0.14765031413608315 0.04753860950743316 0.14765031413608315
4.657E9 0.04805478552894575 0.14940324099606314 0.9519452144710543 -0.14940324099606314 0.9519452144710543 -0.14940324099606314 0.04805478552894575 0.14940324099606314
4.678E9 0.04859501605774429 0.15115687307490175 0.9514049839422558 -0.15115687307490175 0.9514049839422558 -0.15115687307490175 0.04859501605774429 0.15115687307490175
4.699E9 0.04915875131889517 0.1529114518803493 0.9508412486811048 -0.1529114518803493 0.9508412486811048 -0.1529114518803493 0.04915875131889517 0.1529114518803493
4.72E9 0.04974550582673259 0.15466722741604297 0.9502544941732676 -0.15466722741604297 0.9502544941732676 -0.15466722741604297 0.04974550582673259 0.15466722741604297
4.741E9 0.05035485370909263 0.15642445548246478 0.9496451462909073 -0.15642445548246478 0.9496451462909073 -0.15642445548246478 0.05035485370909263 0.15642445548246478
4.762E9 0.050986424428149255 0.15818339541784893 0.9490135755718507 -0.15818339541784893 0.9490135755718507 -0.15818339541784893 0.050986424428149255 0.15818339541784893
4.783E9 0.051639898869980556 0.15994430821078104 0.9483601011300192 -0.15994430821078104 0.9483601011300192 -0.15994430821078104 0.051639898869980556 0.15994430821078104
4.804E9 0.05231500577559199 0.1617074549264732 0.9476849942244079 -0.1617074549264732 0.9476849942244079 -0.1617074549264732 0.05231500577559199 0.1617074549264732
4.825E9 0.05301151848714326 0.16347309539741534 0.9469884815128568 -0.16347309539741534 0.9469884815128568 -0.16347309539741534 0.05301151848714326 0.16347309539741534
4.846E9 0.05372925198440996 0.16524148713650813 0.9462707480155902 -0.16524148713650813 0.9462707480155902 -0.16524148713650813 0.05372925198440996 0.16524148713650813
4.867E9 0.054468060187961166 0.16701288443707707 0.9455319398120386 -0.16701288443707707 0.9455319398120386 -0.16701288443707707 0.054468060187961166 0.16701288443707707
4.888E9 0.055227833507057844 0.16878753762951 0.9447721664929423 -0.16878753762951 0.9447721664929423 -0.16878753762951 0.055227833507057844 0.16878753762951
4.909E9 0.05600849661182633 0.17056569246879474 0.9439915033881737 -0.17056569246879474 0.9439915033881737 -0.17056569246879474 0.05600849661182633 0.17056569246879474
4.93E9 0.05681000641078841 0.17234758963109026 0.9431899935892115 -0.17234758963109026 0.9431899935892115 -0.17234758963109026 0.05681000641078841 0.17234758963109026
4.951E9 0.057632350216309594 0.17413346430072535 0.9423676497836904 -0.17413346430072535 0.9423676497836904 -0.17413346430072535 0.057632350216309594 0.17413346430072535
4.972E9 0.05847554408193942 0.17592354583179848 0.9415244559180606 -0.17592354583179848 0.9415244559180606 -0.17592354583179848 0.05847554408193942 0.17592354583179848
4.993E9 0.05933963129695333 0.17771805747090264 0.9406603687030468 -0.17771805747090264 0.9406603687030468 -0.17771805747090264 0.05933963129695333 0.17771805747090264
5.014E9 0.06022468102465643 0.17951721612950047 0.9397753189753437 -0.17951721612950047 0.9397753189753437 -0.17951721612950047 0.06022468102465643 0.17951721612950047
5.035E9 0.06113078707217022 0.18132123219616497 0.9388692129278297 -0.18132123219616497 0.9388692129278297 -0.18132123219616497 0.06113078707217022 0.18132123219616497
5.056E9 0.06205806678050252 0.18313030938034253 0.9379419332194975 -0.18313030938034253 0.9379419332194975 -0.18313030938034253 0.06205806678050252 0.18313030938034253
5.077E9 0.06300666002469134 0.18494464458051668 0.9369933399753085 -0.18494464458051668 0.9369933399753085 -0.18494464458051668 0.06300666002469134 0.18494464458051668
5.098E9 0.06397672831472304 0.18676442777068022 0.9360232716852769 -0.18676442777068022 0.9360232716852769 -0.18676442777068022 0.06397672831472304 0.18676442777068022
5.119E9 0.06496845398875904 0.18858984189990532 0.9350315460112409 -0.18858984189990532 0.9350315460112409 -0.18858984189990532 0.06496845398875904 0.18858984189990532
5.14E9 0.06598203949096591 0.19042106280054297 0.9340179605090342 -0.19042106280054297 0.9340179605090342 -0.19042106280054297 0.06598203949096591 0.19042106280054297
5.161E9 0.06701770672693559 0.19225825910121067 0.9329822932730643 -0.19225825910121067 0.9329822932730643 -0.19225825910121067 0.06701770672693559 0.19225825910121067
5.182E9 0.06807569649031267 0.19410159214126183 0.9319243035096875 -0.19410159214126183 0.9319243035096875 -0.19410159214126183 0.06807569649031267 0.19410159214126183
5.203E9 0.06915626795481776 0.19595121588387704 0.9308437320451822 -0.19595121588387704 0.9308437320451822 -0.19595121588387704 0.06915626795481776 0.19595121588387704
5.224E9 0.07025969822637355 0.19780727682529928 0.9297403017736263 -0.19780727682529928 0.9297403017736263 -0.19780727682529928 0.07025969822637355 0.19780727682529928
5.245E9 0.0713862819505101 0.19966991389805136 0.9286137180494897 -0.19966991389805136 0.9286137180494897 -0.19966991389805136 0.0713862819505101 0.19966991389805136
5.266E9 0.0725363309706487 0.201539258366242 0.9274636690293511 -0.201539258366242 0.9274636690293511 -0.201539258366242 0.0725363309706487 0.201539258366242
5.287E9 0.07371017403324845 0.2034154337112923 0.9262898259667516 -0.2034154337112923 0.9262898259667516 -0.2034154337112923 0.07371017403324845 0.2034154337112923
5.308E9 0.07490815653614316 0.20529855550659692 0.9250918434638568 -0.20529855550659692 0.9250918434638568 -0.20529855550659692 0.07490815653614316 0.20529855550659692
5.329E9 0.076130640316709 0.20718873127979318 0.923869359683291 -0.20718873127979318 0.923869359683291 -0.20718873127979318 0.076130640316709 0.20718873127979318
5.35E9 0.07737800347678125 0.20908606036143204 0.9226219965232187 -0.20908606036143204 0.9226219965232187 -0.20908606036143204 0.07737800347678125 0.20908606036143204
5.371E9 0.07865064024149111 0.21099063371895396 0.9213493597585092 -0.21099063371895396 0.9213493597585092 -0.21099063371895396 0.07865064024149111 0.21099063371895396
5.392E9 0.07994896084941712 0.21290253377495025 0.9200510391505831 -0.21290253377495025 0.9200510391505831 -0.21290253377495025 0.07994896084941712 0.21290253377495025
5.413E9 0.08127339147164786 0.21482183420875986 0.9187266085283521 -0.21482183420875986 0.9187266085283521 -0.21482183420875986 0.08127339147164786 0.21482183420875986
5.434E9 0.08262437415752993 0.21674859974049906 0.9173756258424701 -0.21674859974049906 0.9173756258424701 -0.21674859974049906 0.08262437415752993 0.21674859974049906
5.455E9 0.08400236680503671 0.2186828858966612 0.9159976331949634 -0.2186828858966612 0.9159976331949634 -0.2186828858966612 0.08400236680503671 0.2186828858966612
5.476E9 0.08540784315383078 0.22062473875644925 0.9145921568461691 -0.22062473875644925 0.9145921568461691 -0.22062473875644925 0.08540784315383078 0.22062473875644925
5.497E9 0.08684129279921918 0.2225741946780212 0.9131587072007807 -0.2225741946780212 0.9131587072007807 -0.2225741946780212 0.08684129279921918 0.2225741946780212
5.518E9 0.08830322122530662 0.22453128000383674 0.9116967787746935 -0.22453128000383674 0.9116967787746935 -0.22453128000383674 0.08830322122530662 0.22453128000383674
5.539E9 0.08979414985574491 0.22649601074429498 0.9102058501442549 -0.22649601074429498 0.9102058501442549 -0.22649601074429498 0.08979414985574491 0.22649601074429498
5.56E9 0.09131461612055858 0.22846839223885096 0.9086853838794411 -0.22846839223885096 0.9086853838794411 -0.22846839223885096 0.09131461612055858 0.22846839223885096
5.581E9 0.09286517353758947 0.23044841879378264 0.9071348264624104 -0.23044841879378264 0.9071348264624104 -0.23044841879378264 0.09286517353758947 0.23044841879378264
5.602E9 0.09444639180716352 0.2324360732957746 0.9055536081928365 -0.2324360732957746 0.9055536081928365 -0.2324360732957746 0.09444639180716352 0.2324360732957746
5.623E9 0.09605885691862155 0.234431326800457 0.9039411430813782 -0.234431326800457 0.9039411430813782 -0.234431326800457 0.09605885691862155 0.234431326800457
5.644E9 0.09770317126739292 0.23643413809502406 0.9022968287326072 -0.23643413809502406 0.9022968287326072 -0.23643413809502406 0.09770317126739292 0.23643413809502406
5.665E9 0.09937995378131068 0.23844445323402394 0.9006200462186893 -0.23844445323402394 0.9006200462186893 -0.23844445323402394 0.09937995378131068 0.23844445323402394
5.686E9 0.10108984005488486 0.24046220504739527 0.8989101599451151 -0.24046220504739527 0.8989101599451151 -0.24046220504739527 0.10108984005488486 0.24046220504739527
5.707E9 0.1028334824902474 0.24248731261978257 0.8971665175097526 -0.24248731261978257 0.8971665175097526 -0.24248731261978257 0.1028334824902474 0.24248731261978257
5.728E9 0.10461155044348537 0.2445196807401456 0.8953884495565145 -0.2445196807401456 0.8953884495565145 -0.2445196807401456 0.10461155044348537 0.2445196807401456
5.749E9 0.10642473037505691 0.24655919932063433 0.8935752696249432 -0.24655919932063433 0.8935752696249432 -0.24655919932063433 0.10642473037505691 0.24655919932063433
5.77E9 0.10827372600296918 0.24860574278367648 0.8917262739970306 -0.24860574278367648 0.8917262739970306 -0.24860574278367648 0.10827372600296918 0.24860574278367648
5.791E9 0.11015925845735797 0.2506591694161828 0.889840741542642 -0.2506591694161828 0.889840741542642 -0.2506591694161828 0.11015925845735797 0.2506591694161828
5.812E9 0.11208206643507793 0.25271932068974984 0.8879179335649219 -0.25271932068974984 0.8879179335649219 -0.25271932068974984 0.11208206643507793 0.25271932068974984
5.833E9 0.11404290635285272 0.254786020545695 0.8859570936471474 -0.254786020545695 0.8859570936471474 -0.254786020545695 0.11404290635285272 0.254786020545695
5.854E9 0.11604255249748821 0.25685907464373614 0.8839574475025117 -0.25685907464373614 0.8839574475025117 -0.25685907464373614 0.11604255249748821 0.25685907464373614
5.875E9 0.11808179717157738 0.2589382695730868 0.8819182028284226 -0.2589382695730868 0.8819182028284226 -0.2589382695730868 0.11808179717157738 0.2589382695730868
5.896E9 0.12016145083305359 0.2610233720247064 0.8798385491669465 -0.2610233720247064 0.8798385491669465 -0.2610233720247064 0.12016145083305359 0.2610233720247064
5.917E9 0.12228234222686628 0.2631141279234192 0.8777176577731338 -0.2631141279234192 0.8777176577731338 -0.2631141279234192 0.12228234222686628 0.2631141279234192
5.938E9 0.12444531850695915 0.2652102615185834 0.8755546814930409 -0.2652102615185834 0.8755546814930409 -0.2652102615185834 0.12444531850695915 0.2652102615185834
5.959E9 0.12665124534662447 0.2673114744319612 0.8733487546533755 -0.2673114744319612 0.8733487546533755 -0.2673114744319612 0.12665124534662447 0.2673114744319612
5.98E9 0.12890100703520382 0.26941744466142703 0.8710989929647963 -0.26941744466142703 0.8710989929647963 -0.26941744466142703 0.12890100703520382 0.26941744466142703
6.001E9 0.1311955065589728 0.27152782553912025 0.8688044934410271 -0.27152782553912025 0.8688044934410271 -0.27152782553912025 0.1311955065589728 0.27152782553912025
6.022E9 0.13353566566392444 0.2736422446426392 0.8664643343360756 -0.2736422446426392 0.8664643343360756 -0.2736422446426392 0.13353566566392444 0.2736422446426392
6.043E9 0.13592242489801615 0.2757603026578568 0.8640775751019839 -0.2757603026578568 0.8640775751019839 -0.2757603026578568 0.13592242489801615 0.2757603026578568
6.064E9 0.13835674363029654 0.27788157219193593 0.8616432563697034 -0.27788157219193593 0.8616432563697034 -0.27788157219193593 0.13835674363029654 0.27788157219193593
6.085E9 0.14083960004416116 0.28000559653511825 0.8591603999558389 -0.28000559653511825 0.8591603999558389 -0.28000559653511825 0.14083960004416116 0.28000559653511825
6.106E9 0.14337199110180873 0.28213188836986647 0.8566280088981914 -0.28213188836986647 0.8566280088981914 -0.28213188836986647 0.14337199110180873 0.28213188836986647
6.127E9 0.14595493247678903 0.2842599284259602 0.854045067523211 -0.2842599284259602 0.854045067523211 -0.2842599284259602 0.14595493247678903 0.2842599284259602
6.148E9 0.14858945845131963 0.28638916408015636 0.8514105415486803 -0.28638916408015636 0.8514105415486803 -0.28638916408015636 0.14858945845131963 0.28638916408015636
6.169E9 0.15127662177485393 0.2885190078990726 0.8487233782251462 -0.2885190078990726 0.8487233782251462 -0.2885190078990726 0.15127662177485393 0.2885190078990726
6.19E9 0.15401749348014154 0.2906488361239812 0.8459825065198584 -0.2906488361239812 0.8459825065198584 -0.2906488361239812 0.15401749348014154 0.2906488361239812
6.211E9 0.1568131626527972 0.292777987096271 0.8431868373472026 -0.292777987096271 0.8431868373472026 -0.292777987096271 0.1568131626527972 0.292777987096271
6.232E9 0.15966473615013158 0.2949057596223905 0.8403352638498682 -0.2949057596223905 0.8403352638498682 -0.2949057596223905 0.15966473615013158 0.2949057596223905
6.253E9 0.16257333826474557 0.29703141127718363 0.8374266617352546 -0.29703141127718363 0.8374266617352546 -0.29703141127718363 0.16257333826474557 0.29703141127718363
6.274E9 0.1655401103280977 0.29915415664462036 0.8344598896719021 -0.29915415664462036 0.8344598896719021 -0.29915415664462036 0.1655401103280977 0.29915415664462036
6.295E9 0.16856621024897792 0.3012731654950545 0.831433789751022 -0.3012731654950545 0.831433789751022 -0.3012731654950545 0.16856621024897792 0.3012731654950545
6.316E9 0.17165281198150067 0.3033875608982728 0.8283471880184993 -0.3033875608982728 0.8283471880184993 -0.3033875608982728 0.17165281198150067 0.3033875608982728
6.337E9 0.17480110491692624 0.3054964172717708 0.8251988950830735 -0.3054964172717708 0.8251988950830735 -0.3054964172717708 0.17480110491692624 0.3054964172717708
6.358E9 0.17801229319327677 0.30759875836387546 0.8219877068067233 -0.30759875836387546 0.8219877068067233 -0.30759875836387546 0.17801229319327677 0.30759875836387546
6.379E9 0.18128759491637803 0.30969355517155106 0.818712405083622 -0.30969355517155106 0.818712405083622 -0.30969355517155106 0.18128759491637803 0.30969355517155106
6.4E9 0.18462824128559285 0.3117797237929686 0.8153717587144071 -0.3117797237929686 0.8153717587144071 -0.3117797237929686 0.18462824128559285 0.3117797237929686
6.421E9 0.18803547561715622 0.3138561232152019 0.8119645243828436 -0.3138561232152019 0.8119645243828436 -0.3138561232152019 0.18803547561715622 0.3138561232152019
6.442E9 0.19151055225763056 0.31592155303771835 0.8084894477423693 -0.31592155303771835 0.8084894477423693 -0.31592155303771835 0.19151055225763056 0.31592155303771835
6.463E9 0.19505473537962512 0.3179747511326916 0.804945264620375 -0.3179747511326916 0.804945264620375 -0.3179747511326916 0.19505473537962512 0.3179747511326916
6.484E9 0.19866929765151642 0.3200143912435482 0.8013307023484835 -0.3200143912435482 0.8013307023484835 -0.3200143912435482 0.19866929765151642 0.3200143912435482
6.505E9 0.20235551877251778 0.3220390805236075 0.7976444812274823 -0.3220390805236075 0.7976444812274823 -0.3220390805236075 0.20235551877251778 0.3220390805236075
6.526E9 0.20611468386402515 0.3240473570171452 0.7938853161359748 -0.3240473570171452 0.7938853161359748 -0.3240473570171452 0.20611468386402515 0.3240473570171452
6.547E9 0.20994808170777765 0.32603768708576597 0.7900519182922224 -0.32603768708576597 0.7900519182922224 -0.32603768708576597 0.20994808170777765 0.32603768708576597
6.568E9 0.21385700282094686 0.32800846278354684 0.786142997179053 -0.32800846278354684 0.786142997179053 -0.32800846278354684 0.21385700282094686 0.32800846278354684
6.589E9 0.21784273735788273 0.32995799918507895 0.7821572626421173 -0.32995799918507895 0.7821572626421173 -0.32995799918507895 0.21784273735788273 0.32995799918507895
6.61E9 0.2219065728278403 0.3318845316712411 0.7780934271721597 -0.3318845316712411 0.7780934271721597 -0.3318845316712411 0.2219065728278403 0.3318845316712411
6.631E9 0.22604979161764127 0.33378621317833296 0.7739502083823586 -0.33378621317833296 0.7739502083823586 -0.33378621317833296 0.22604979161764127 0.33378621317833296
6.652E9 0.23027366830784976 0.33566111141703847 0.7697263316921504 -0.33566111141703847 0.7697263316921504 -0.33566111141703847 0.23027366830784976 0.33566111141703847
6.673E9 0.23457946677071986 0.3375072060686356 0.7654205332292802 -0.3375072060686356 0.7654205332292802 -0.3375072060686356 0.23457946677071986 0.3375072060686356
6.694E9 0.23896843703784645 0.33932238596686704 0.7610315629621536 -0.33932238596686704 0.7610315629621536 -0.33932238596686704 0.23896843703784645 0.33932238596686704
6.715E9 0.24344181192519304 0.3411044462749877 0.756558188074807 -0.3411044462749877 0.756558188074807 -0.3411044462749877 0.24344181192519304 0.3411044462749877
6.736E9 0.24800080340293612 0.3428510856686866 0.7519991965970639 -0.3428510856686866 0.7519991965970639 -0.3428510856686866 0.24800080340293612 0.3428510856686866
6.757E9 0.2526465986974033 0.34455990353685095 0.7473534013025968 -0.34455990353685095 0.7473534013025968 -0.34455990353685095 0.2526465986974033 0.34455990353685095
6.778E9 0.2573803561122595 0.3462283972135058 0.7426196438877405 -0.3462283972135058 0.7426196438877405 -0.3462283972135058 0.2573803561122595 0.3462283972135058
6.799E9 0.2622032005560833 0.3478539592557302 0.7377967994439165 -0.3478539592557302 0.7377967994439165 -0.3478539592557302 0.2622032005560833 0.3478539592557302
6.82E9 0.2671162187635142 0.349433874783903 0.7328837812364857 -0.349433874783903 0.7328837812364857 -0.349433874783903 0.2671162187635142 0.349433874783903
6.841E9 0.27212045419731534 0.35096531890229876 0.7278795458026848 -0.35096531890229876 0.7278795458026848 -0.35096531890229876 0.27212045419731534 0.35096531890229876
6.862E9 0.2772169016189635 0.3524453542198068 0.7227830983810366 -0.3524453542198068 0.7227830983810366 -0.3524453542198068 0.2772169016189635 0.3524453542198068
6.883E9 0.2824065013157845 0.35387092849240975 0.7175934986842155 -0.35387092849240975 0.7175934986842155 -0.35387092849240975 0.2824065013157845 0.35387092849240975
6.904E9 0.28769013297318324 0.3552388724110051 0.7123098670268168 -0.3552388724110051 0.7123098670268168 -0.3552388724110051 0.28769013297318324 0.3552388724110051
6.925E9 0.2930686091812542 0.35654589756020577 0.7069313908187457 -0.35654589756020577 0.7069313908187457 -0.35654589756020577 0.2930686091812542 0.35654589756020577
6.946E9 0.29854266856592415 0.3577885945758843 0.701457331434076 -0.3577885945758843 0.701457331434076 -0.3577885945758843 0.29854266856592415 0.3577885945758843
6.967E9 0.3041129685359043 0.35896343153144217 0.6958870314640956 -0.35896343153144217 0.6958870314640956 -0.35896343153144217 0.3041129685359043 0.35896343153144217
6.988E9 0.30978007763802606 0.3600667525850661 0.690219922361974 -0.3600667525850661 0.690219922361974 -0.3600667525850661 0.30978007763802606 0.3600667525850661
7.009E9 0.31554446751513016 0.36109477692257697 0.6844555324848699 -0.36109477692257697 0.6844555324848699 -0.36109477692257697 0.31554446751513016 0.36109477692257697
7.03E9 0.32140650446248226 0.36204359803285724 0.6785934955375178 -0.36204359803285724 0.6785934955375178 -0.36204359803285724 0.32140650446248226 0.36204359803285724
7.051E9 0.32736644058085496 0.3629091833552545 0.6726335594191448 -0.3629091833552545 0.6726335594191448 -0.3629091833552545 0.32736644058085496 0.3629091833552545
7.072E9 0.3334244045268259 0.3636873743407667 0.6665755954731739 -0.3636873743407667 0.6665755954731739 -0.3636873743407667 0.3334244045268259 0.3636873743407667
7.093E9 0.33958039186363814 0.3643738869712006 0.6604196081363619 -0.3643738869712006 0.6604196081363619 -0.3643738869712006 0.33958039186363814 0.3643738869712006
7.114E9 0.345834255019112 0.3649643127828332 0.654165744980888 -0.3649643127828332 0.654165744980888 -0.3649643127828332 0.345834255019112 0.3649643127828332
7.135E9 0.3521856928606118 0.3654541204433493 0.6478143071393883 -0.3654541204433493 0.6478143071393883 -0.3654541204433493 0.3521856928606118 0.3654541204433493
7.156E9 0.35863423990099497 0.36583865793294734 0.6413657600990048 -0.36583865793294734 0.6413657600990048 -0.36583865793294734 0.35863423990099497 0.36583865793294734
7.177E9 0.3651792551538257 0.36611315538246225 0.6348207448461742 -0.36611315538246225 0.6348207448461742 -0.36611315538246225 0.3651792551538257 0.36611315538246225
7.198E9 0.37181991066089554 0.36627272862307453 0.6281800893391046 -0.36627272862307453 0.6281800893391046 -0.36627272862307453 0.37181991066089554 0.36627272862307453
7.219E9 0.3785551797203353 0.3663123835036404 0.6214448202796646 -0.3663123835036404 0.6214448202796646 -0.3663123835036404 0.3785551797203353 0.3663123835036404
7.24E9 0.3853838248492568 0.3662270210327951 0.6146161751507433 -0.3662270210327951 0.6146161751507433 -0.3662270210327951 0.3853838248492568 0.3662270210327951
7.261E9 0.3923043855210228 0.3660114434037021 0.6076956144789772 -0.3660114434037021 0.6076956144789772 -0.3660114434037021 0.3923043855210228 0.3660114434037021
7.282E9 0.39931516572377584 0.36566036095958204 0.6006848342762241 -0.36566036095958204 0.6006848342762241 -0.36566036095958204 0.39931516572377584 0.36566036095958204
7.303E9 0.4064142213939235 0.3651684001578531 0.5935857786060765 -0.3651684001578531 0.5935857786060765 -0.3651684001578531 0.4064142213939235 0.3651684001578531
7.324E9 0.41359934778565016 0.36453011258980705 0.5864006522143499 -0.36453011258980705 0.5864006522143499 -0.36453011258980705 0.41359934778565016 0.36453011258980705
7.345E9 0.4208680668453618 0.36373998511111505 0.5791319331546381 -0.36373998511111505 0.5791319331546381 -0.36373998511111505 0.4208680668453618 0.36373998511111505
7.366E9 0.4282176146681037 0.3627924511360432 0.5717823853318963 -0.3627924511360432 0.5717823853318963 -0.3627924511360432 0.4282176146681037 0.3627924511360432
7.387E9 0.4356449291214055 0.3616819031449551 0.5643550708785945 -0.3616819031449551 0.5643550708785945 -0.3616819031449551 0.4356449291214055 0.3616819031449551
7.408E9 0.4431466377306373 0.36040270645041517 0.5568533622693628 -0.36040270645041517 0.5568533622693628 -0.36040270645041517 0.4431466377306373 0.36040270645041517
7.429E9 0.4507190459287253 0.35894921426187776 0.5492809540712746 -0.35894921426187776 0.5492809540712746 -0.35894921426187776 0.4507190459287253 0.35894921426187776
7.45E9 0.4583581257818334 0.35731578408249054 0.5416418742181665 -0.35731578408249054 0.5416418742181665 -0.35731578408249054 0.4583581257818334 0.35731578408249054
7.471E9 0.46605950531130136 0.35549679546386215 0.5339404946886985 -0.35549679546386215 0.5339404946886985 -0.35549679546386215 0.46605950531130136 0.35549679546386215
7.492E9 0.47381845854057003 0.3534866691356879 0.5261815414594301 -0.3534866691356879 0.5261815414594301 -0.3534866691356879 0.47381845854057003 0.3534866691356879
7.513E9 0.4816298964038914 0.3512798875168246 0.5183701035961085 -0.3512798875168246 0.5183701035961085 -0.3512798875168246 0.4816298964038914 0.3512798875168246
7.534E9 0.4894883586610871 0.34887101660273795 0.5105116413389128 -0.34887101660273795 0.5105116413389128 -0.34887101660273795 0.4894883586610871 0.34887101660273795
7.555E9 0.49738800696941154 0.34625472921114153 0.5026119930305885 -0.34625472921114153 0.5026119930305885 -0.34625472921114153 0.49738800696941154 0.34625472921114153
7.576E9 0.5053226192693234 0.34342582955317524 0.49467738073067646 -0.34342582955317524 0.49467738073067646 -0.34342582955317524 0.5053226192693234 0.34342582955317524
7.597E9 0.5132855856456426 0.340379279081576 0.4867144143543575 -0.340379279081576 0.4867144143543575 -0.340379279081576 0.5132855856456426 0.340379279081576
7.618E9 0.5212699058287572 0.337110223550092 0.4787300941712426 -0.337110223550092 0.4787300941712426 -0.337110223550092 0.5212699058287572 0.337110223550092
7.639E9 0.5292681885021684 0.33361402119993144 0.47073181149783166 -0.33361402119993144 0.47073181149783166 -0.33361402119993144 0.5292681885021684 0.33361402119993144
7.66E9 0.5372726525823426 0.32988627196945314 0.46272734741765736 -0.32988627196945314 0.46272734741765736 -0.32988627196945314 0.5372726525823426 0.32988627196945314
7.681E9 0.5452751306344656 0.32592284760275464 0.45472486936553436 -0.32592284760275464 0.45472486936553436 -0.32592284760275464 0.5452751306344656 0.32592284760275464
7.702E9 0.5532670745829023 0.32171992251150516 0.44673292541709775 -0.32171992251150516 0.44673292541709775 -0.32171992251150516 0.5532670745829023 0.32171992251150516
7.723E9 0.5612395638678503 0.3172740052225367 0.4387604361321495 -0.3172740052225367 0.4387604361321495 -0.3172740052225367 0.5612395638678503 0.3172740052225367
7.744E9 0.5691833161895634 0.3125819702216532 0.43081668381043636 -0.3125819702216532 0.43081668381043636 -0.3125819702216532 0.5691833161895634 0.3125819702216532
7.765E9 0.5770887009684674 0.30764108998216017 0.4229112990315325 -0.30764108998216017 0.4229112990315325 -0.30764108998216017 0.5770887009684674 0.30764108998216017
7.786E9 0.5849457556333397 0.3024490669451681 0.41505424436666016 -0.3024490669451681 0.41505424436666016 -0.3024490669451681 0.5849457556333397 0.3024490669451681
7.807E9 0.5927442048304543 0.29700406519813005 0.40725579516954585 -0.29700406519813005 0.40725579516954585 -0.29700406519813005 0.5927442048304543 0.29700406519813005
7.828E9 0.6004734826240286 0.2913047415788862 0.39952651737597156 -0.2913047415788862 0.39952651737597156 -0.2913047415788862 0.6004734826240286 0.2913047415788862
7.849E9 0.6081227577326725 0.2853502759150704 0.3918772422673276 -0.2853502759150704 0.3918772422673276 -0.2853502759150704 0.6081227577326725 0.2853502759150704
7.87E9 0.6156809618177127 0.279140400093695 0.38431903818228735 -0.279140400093695 0.38431903818228735 -0.279140400093695 0.6156809618177127 0.279140400093695
7.891E9 0.6231368208076209 0.2726754256434791 0.3768631791923791 -0.2726754256434791 0.3768631791923791 -0.2726754256434791 0.6231368208076209 0.2726754256434791
7.912E9 0.6304788892084069 0.26595626950361184 0.36952111079159305 -0.26595626950361184 0.36952111079159305 -0.26595626950361184 0.6304788892084069 0.26595626950361184
7.933E9 0.6376955873132127 0.2589844776475628 0.3623044126867873 -0.2589844776475628 0.3623044126867873 -0.2589844776475628 0.6376955873132127 0.2589844776475628
7.954E9 0.6447752411857959 0.25176224622978904 0.3552247588142042 -0.25176224622978904 0.3552247588142042 -0.25176224622978904 0.6447752411857959 0.25176224622978904
7.975E9 0.651706125252704 0.24429243992710456 0.348293874747296 -0.24429243992710456 0.348293874747296 -0.24429243992710456 0.651706125252704 0.24429243992710456
7.996E9 0.6584765072982719 0.23657860715546772 0.34152349270172816 -0.23657860715546772 0.34152349270172816 -0.23657860715546772 0.6584765072982719 0.23657860715546772
8.017E9 0.6650746956158249 0.22862499185722934 0.33492530438417534 -0.22862499185722934 0.33492530438417534 -0.22862499185722934 0.6650746956158249 0.22862499185722934
8.038E9 0.671489088028331 0.22043654157372583 0.32851091197166904 -0.22043654157372583 0.32851091197166904 -0.22043654157372583 0.671489088028331 0.22043654157372583
8.059E9 0.6777082224530967 0.2120189115434549 0.3222917775469033 -0.2120189115434549 0.3222917775469033 -0.2120189115434549 0.6777082224530967 0.2120189115434549
8.08E9 0.683720828648632 0.20337846459703493 0.31627917135136796 -0.20337846459703493 0.31627917135136796 -0.20337846459703493 0.683720828648632 0.20337846459703493
8.101E9 0.6895158807485225 0.19452226665638403 0.31048411925147745 -0.19452226665638403 0.31048411925147745 -0.19452226665638403 0.6895158807485225 0.19452226665638403
8.122E9 0.6950826501577171 0.18545807768690725 0.304917349842283 -0.18545807768690725 0.304917349842283 -0.18545807768690725 0.6950826501577171 0.18545807768690725
8.143E9 0.7004107583620084 0.1761943379973448 0.29958924163799155 -0.1761943379973448 0.29958924163799155 -0.1761943379973448 0.7004107583620084 0.1761943379973448
8.164E9 0.7054902291822941 0.16674014983187085 0.29450977081770563 -0.16674014983187085 0.29450977081770563 -0.16674014983187085 0.7054902291822941 0.16674014983187085
8.185E9 0.7103115399922167 0.1571052542521759 0.28968846000778326 -0.1571052542521759 0.28968846000778326 -0.1571052542521759 0.7103115399922167 0.1571052542521759
8.206E9 0.7148656714114954 0.14730000336290158 0.2851343285885048 -0.14730000336290158 0.2851343285885048 -0.14730000336290158 0.7148656714114954 0.14730000336290158
8.227E9 0.7191441549881727 0.1373353279909033 0.28085584501182714 -0.1373353279909033 0.28085584501182714 -0.1373353279909033 0.7191441549881727 0.1373353279909033
8.248E9 0.7231391183913756 0.12722270098639307 0.2768608816086243 -0.12722270098639307 0.2768608816086243 -0.12722270098639307 0.7231391183913756 0.12722270098639307
8.269E9 0.7268433276521755 0.11697409637098675 0.27315667234782454 -0.11697409637098675 0.27315667234782454 -0.11697409637098675 0.7268433276521755 0.11697409637098675
8.29E9 0.7302502260137197 0.10660194461292863 0.26974977398628047 -0.10660194461292863 0.26974977398628047 -0.10660194461292863 0.7302502260137197 0.10660194461292863
8.311E9 0.7333539689827346 0.096119084362141 0.2666460310172655 -0.096119084362141 0.2666460310172655 -0.096119084362141 0.7333539689827346 0.096119084362141
8.332E9 0.7361494552124138 0.0855387110262523 0.26385054478758624 -0.0855387110262523 0.26385054478758624 -0.0855387110262523 0.7361494552124138 0.0855387110262523
8.353E9 0.7386323528910296 0.07487432261223147 0.2613676471089703 -0.07487432261223147 0.2613676471089703 -0.07487432261223147 0.7386323528910296 0.07487432261223147
8.374E9 0.7407991213605848 0.06413966329594385 0.2592008786394152 -0.06413966329594385 0.2592008786394152 -0.06413966329594385 0.7407991213605848 0.06413966329594385
8.395E9 0.7426470277446183 0.05334866521284228 0.2573529722553817 -0.05334866521284228 0.2573529722553817 -0.05334866521284228 0.7426470277446183 0.05334866521284228
8.416E9 0.7441741584228435 0.04251538898665444 0.25582584157715643 -0.04251538898665444 0.25582584157715643 -0.04251538898665444 0.7441741584228435 0.04251538898665444
8.437E9 0.7453794252515703 0.03165396352864243 0.2546205747484298 -0.03165396352864243 0.2546205747484298 -0.03165396352864243 0.7453794252515703 0.03165396352864243
8.458E9 0.7462625664916491 0.020778525647614666 0.25373743350835076 -0.020778525647614666 0.25373743350835076 -0.020778525647614666 0.7462625664916491 0.020778525647614666
8.479E9 0.7468241424687868 0.009903160010175212 0.25317585753121324 -0.009903160010175212 0.25317585753121324 -0.009903160010175212 0.7468241424687868 0.009903160010175212
8.5E9 0.7470655260532981 -9.581600182277175E-4 0.2529344739467019 9.581600182277175E-4 0.2529344739467019 9.581600182277175E-4 0.7470655260532981 -9.581600182277175E-4
