!Murata Part Number: LQG18HN5N6S00
!These Parameters are Measured in Series Mode Connection
!       o--[Z]--o
!Port1              Port2
!       o-------o
!
!Freq. Start=1[MHz] Stop=20[GHz], 401[Steps]
# Hz S RI R 50
!Freq.(Hz) S11(Real) S11(Imag) S21(Real) S21(Imag) S12(Real) S12(Imag) S22(Real) S22(Imag)
1000000.0 8.027516720716136E-4 3.4912025248249375E-4 0.9991972483279286 -3.4912025248249375E-4 0.9991972483279286 -3.4912025248249375E-4 8.027516720716136E-4 3.4912025248249375E-4
1025067.7611879389 8.028320844623424E-4 3.578673446121566E-4 0.9991971679155378 -3.578673446121566E-4 0.9991971679155378 -3.578673446121566E-4 8.028320844623424E-4 3.578673446121566E-4
1050763.915026853 8.029165473354386E-4 3.66833356515271E-4 0.9991970834526643 -3.66833356515271E-4 0.9991970834526643 -3.66833356515271E-4 8.029165473354386E-4 3.66833356515271E-4
1077104.2139136498 8.03005263047642E-4 3.760237493032578E-4 0.9991969947369524 -3.760237493032578E-4 0.9991969947369524 -3.760237493032578E-4 8.03005263047642E-4 3.760237493032578E-4
1104104.8051225597 8.030984438924618E-4 3.854441189629968E-4 0.9991969015561074 -3.854441189629968E-4 0.9991969015561074 -3.854441189629968E-4 8.030984438924618E-4 3.854441189629968E-4
1131782.2407038277 8.031963125702808E-4 3.951001995868128E-4 0.9991968036874298 -3.9510019958681285E-4 0.9991968036874298 -3.9510019958681285E-4 8.031963125702808E-4 3.951001995868128E-4
1160153.4876305414 8.032991026788494E-4 4.04997866672424E-4 0.9991967008973213 -4.04997866672424E-4 0.9991967008973213 -4.04997866672424E-4 8.032991026788494E-4 4.04997866672424E-4
1189235.9381998181 8.034070592248558E-4 4.1514314049382673E-4 0.999196592940775 -4.1514314049382673E-4 0.999196592940775 -4.1514314049382673E-4 8.034070592248558E-4 4.1514314049382673E-4
1219047.4206947256 8.035204391572638E-4 4.255421895440895E-4 0.9991964795608426 -4.255421895440896E-4 0.9991964795608426 -4.255421895440896E-4 8.035204391572638E-4 4.255421895440895E-4
1249606.2103134736 8.036395119231041E-4 4.3620133405098196E-4 0.9991963604880768 -4.3620133405098196E-4 0.9991963604880768 -4.3620133405098196E-4 8.036395119231041E-4 4.3620133405098196E-4
1280931.0403725768 8.037645600464082E-4 4.471270495663508E-4 0.9991962354399536 -4.471270495663507E-4 0.9991962354399536 -4.471270495663507E-4 8.037645600464082E-4 4.471270495663508E-4
1313041.1137908546 8.03895879730947E-4 4.5832597063010444E-4 0.9991961041202692 -4.5832597063010444E-4 0.9991961041202692 -4.5832597063010444E-4 8.03895879730947E-4 4.5832597063010444E-4
1345956.1148613088 8.040337814874456E-4 4.6980489450964804E-4 0.9991959662185125 -4.6980489450964804E-4 0.9991959662185125 -4.6980489450964804E-4 8.040337814874456E-4 4.6980489450964804E-4
1379696.221318098 8.041785907859101E-4 4.8157078501555436E-4 0.999195821409214 -4.8157078501555447E-4 0.999195821409214 -4.8157078501555447E-4 8.041785907859101E-4 4.8157078501555436E-4
1414282.1167060018 8.043306487336794E-4 4.936307763942233E-4 0.9991956693512661 -4.936307763942232E-4 0.9991956693512661 -4.936307763942232E-4 8.043306487336794E-4 4.936307763942233E-4
1449735.0030599602 8.044903127797983E-4 5.059921772982297E-4 0.9991955096872202 -5.059921772982297E-4 0.9991955096872202 -5.059921772982297E-4 8.044903127797983E-4 5.059921772982297E-4
1486076.613902463 8.046579574462481E-4 5.186624748350085E-4 0.9991953420425537 -5.186624748350085E-4 0.9991953420425537 -5.186624748350085E-4 8.046579574462481E-4 5.186624748350085E-4
1523329.2275667507 8.048339750865473E-4 5.316493386944731E-4 0.9991951660249135 -5.316493386944731E-4 0.9991951660249135 -5.316493386944731E-4 8.048339750865473E-4 5.316493386944731E-4
1561515.680854001 8.050187766721662E-4 5.449606253561045E-4 0.9991949812233278 -5.449606253561045E-4 0.9991949812233278 -5.449606253561045E-4 8.050187766721662E-4 5.449606253561045E-4
1600659.3830328707 8.052127926071427E-4 5.58604382375988E-4 0.9991947872073929 -5.58604382375988E-4 0.9991947872073929 -5.58604382375988E-4 8.052127926071427E-4 5.58604382375988E-4
1640784.3301899722 8.054164735712069E-4 5.725888527542091E-4 0.9991945835264289 -5.725888527542091E-4 0.9991945835264289 -5.725888527542091E-4 8.054164735712069E-4 5.725888527542091E-4
1681915.1199400865 8.05630291391647E-4 5.869224793829549E-4 0.9991943697086083 -5.869224793829548E-4 0.9991943697086083 -5.869224793829548E-4 8.05630291391647E-4 5.869224793829549E-4
1724076.9665051282 8.058547399440358E-4 6.016139095756012E-4 0.999194145260056 -6.016139095756012E-4 0.999194145260056 -6.016139095756012E-4 8.058547399440358E-4 6.016139095756012E-4
1767295.7161711045 8.060903360818362E-4 6.166719996769909E-4 0.9991939096639183 -6.166719996769909E-4 0.9991939096639183 -6.166719996769909E-4 8.060903360818362E-4 6.166719996769909E-4
1811597.863132549 8.063376205947768E-4 6.321058197550381E-4 0.9991936623794054 -6.321058197550381E-4 0.9991936623794054 -6.321058197550381E-4 8.063376205947768E-4 6.321058197550381E-4
1857010.565734136 8.065971591957373E-4 6.479246583737254E-4 0.9991934028408043 -6.479246583737254E-4 0.9991934028408043 -6.479246583737254E-4 8.065971591957373E-4 6.479246583737254E-4
1903561.6631194383 8.068695435357303E-4 6.641380274474919E-4 0.9991931304564642 -6.641380274474919E-4 0.9991931304564642 -6.641380274474919E-4 8.068695435357303E-4 6.641380274474919E-4
1951279.6922970319 8.071553922463796E-4 6.807556671769228E-4 0.9991928446077537 -6.807556671769229E-4 0.9991928446077537 -6.807556671769229E-4 8.071553922463796E-4 6.807556671769228E-4
2000193.9056344086 8.074553520091019E-4 6.977875510656158E-4 0.9991925446479908 -6.977875510656158E-4 0.9991925446479908 -6.977875510656158E-4 8.074553520091019E-4 6.977875510656158E-4
2050334.288790422 8.077700986499683E-4 7.152438910180105E-4 0.9991922299013499 -7.152438910180105E-4 0.9991922299013499 -7.152438910180105E-4 8.077700986499683E-4 7.152438910180105E-4
2101731.579097263 8.08100338258976E-4 7.331351425179188E-4 0.9991918996617413 -7.331351425179188E-4 0.9991918996617413 -7.331351425179188E-4 8.08100338258976E-4 7.331351425179188E-4
2154417.2844032226 8.084468083321957E-4 7.514720098874566E-4 0.999191553191668 -7.514720098874565E-4 0.999191553191668 -7.514720098874565E-4 8.084468083321957E-4 7.514720098874566E-4
2208423.70238781 8.088102789349524E-4 7.702654516260246E-4 0.999191189721065 -7.702654516260246E-4 0.999191189721065 -7.702654516260246E-4 8.088102789349524E-4 7.702654516260246E-4
2263783.9403610514 8.091915538838749E-4 7.895266858289699E-4 0.9991908084461162 -7.895266858289699E-4 0.9991908084461162 -7.895266858289699E-4 8.091915538838749E-4 7.895266858289699E-4
2320531.935559113 8.095914719452914E-4 8.09267195685547E-4 0.9991904085280547 -8.09267195685547E-4 0.9991904085280547 -8.09267195685547E-4 8.095914719452914E-4 8.09267195685547E-4
2378702.475948694 8.100109080470588E-4 8.294987350558056E-4 0.9991899890919531 -8.294987350558056E-4 0.9991899890919531 -8.294987350558056E-4 8.100109080470588E-4 8.294987350558056E-4
2438331.221552935 8.104507745004939E-4 8.502333341260664E-4 0.9991895492254995 -8.502333341260662E-4 0.9991895492254995 -8.502333341260662E-4 8.104507745004939E-4 8.502333341260664E-4
2499454.726311919 8.109120222286181E-4 8.714833051427041E-4 0.9991890879777715 -8.714833051427041E-4 0.9991890879777715 -8.714833051427041E-4 8.109120222286181E-4 8.714833051427041E-4
2562110.460491171 8.11395641996433E-4 8.932612482240365E-4 0.9991886043580036 -8.932612482240367E-4 0.9991886043580036 -8.932612482240367E-4 8.11395641996433E-4 8.932612482240365E-4
2626336.8336518835 8.119026656384326E-4 9.155800572502552E-4 0.9991880973343615 -9.155800572502552E-4 0.9991880973343615 -9.155800572502552E-4 8.119026656384326E-4 9.155800572502552E-4
2692173.2181969564 8.124341672779761E-4 9.384529258314902E-4 0.999187565832722 -9.384529258314903E-4 0.999187565832722 -9.384529258314903E-4 8.124341672779761E-4 9.384529258314902E-4
2759659.973507282 8.129912645325667E-4 9.618933533543119E-4 0.9991870087354673 -9.618933533543119E-4 0.9991870087354673 -9.618933533543119E-4 8.129912645325667E-4 9.618933533543119E-4
2828838.470683076 8.135751196984331E-4 9.859151511072404E-4 0.9991864248803014 -9.859151511072404E-4 0.9991864248803014 -9.859151511072404E-4 8.135751196984331E-4 9.859151511072404E-4
2899751.1179054133 8.141869409071604E-4 0.0010105324484861614 0.9991858130590927 -0.0010105324484861614 0.9991858130590927 -0.0010105324484861614 8.141869409071604E-4 0.0010105324484861614
2972441.3864335245 8.148279832463942E-4 0.0010357596992809246 0.9991851720167537 -0.0010357596992809246 0.9991851720167537 -0.0010357596992809246 8.148279832463942E-4 0.0010357596992809246
3046953.8372537857 8.154995498359398E-4 0.0010616116880448917 0.999184500450164 -0.0010616116880448917 0.999184500450164 -0.0010616116880448917 8.154995498359398E-4 0.0010616116880448917
3123334.1483967374 8.162029928497888E-4 0.001088103536549725 0.9991837970071502 -0.001088103536549725 0.9991837970071502 -0.001088103536549725 8.162029928497888E-4 0.001088103536549725
3201629.1429388807 8.169397144738639E-4 0.0011152507103283703 0.9991830602855261 -0.0011152507103283703 0.9991830602855261 -0.0011152507103283703 8.169397144738639E-4 0.0011152507103283703
3281886.8177064178 8.177111677884345E-4 0.001143069025309929 0.9991822888322117 -0.001143069025309929 0.9991822888322117 -0.001143069025309929 8.177111677884345E-4 0.001143069025309929
3364156.372698527 8.185188575633917E-4 0.00117157465455096 0.9991814811424368 -0.00117157465455096 0.9991814811424368 -0.00117157465455096 8.185188575633917E-4 0.00117157465455096
3448488.2412482155 8.193643409537346E-4 0.0012007841350687393 0.9991806356590462 -0.0012007841350687393 0.9991806356590462 -0.0012007841350687393 8.193643409537346E-4 0.0012007841350687393
3534934.120939241 8.202492280818281E-4 0.0012307143747831107 0.9991797507719183 -0.0012307143747831107 0.9991797507719183 -0.0012307143747831107 8.202492280818281E-4 0.0012307143747831107
3623547.0052980417 8.211751824922352E-4 0.0012613826595747927 0.9991788248175077 -0.0012613826595747927 0.9991788248175077 -0.0012613826595747927 8.211751824922352E-4 0.0012613826595747927
3714381.216280124 8.221439214641437E-4 0.0012928066604694338 0.9991778560785357 -0.0012928066604694338 0.9991778560785357 -0.0012928066604694338 8.221439214641437E-4 0.0012928066604694338
3807492.4375708 8.231572161657605E-4 0.001325004440958216 0.9991768427838343 -0.001325004440958216 0.9991768427838343 -0.001325004440958216 8.231572161657605E-4 0.001325004440958216
3902937.748720708 8.242168916343841E-4 0.0013579944644675718 0.9991757831083656 -0.001357994464467572 0.9991757831083656 -0.001357994464467572 8.242168916343841E-4 0.0013579944644675718
4000775.6601370294 8.253248265653533E-4 0.0013917956019924307 0.9991746751734344 -0.0013917956019924309 0.9991746751734344 -0.0013917956019924309 8.253248265653533E-4 0.0013917956019924307
4101066.148951862 8.264829528926388E-4 0.0014264271399095092 0.9991735170471073 -0.0014264271399095092 0.9991735170471073 -0.0014264271399095092 8.264829528926388E-4 0.0014264271399095092
4203870.695789727 8.276932551435559E-4 0.0014619087879893745 0.9991723067448562 -0.0014619087879893745 0.9991723067448562 -0.0014619087879893745 8.276932551435559E-4 0.0014619087879893745
4309252.3224567585 8.289577695499685E-4 0.0014982606876284786 0.9991710422304498 -0.0014982606876284786 0.9991710422304498 -0.0014982606876284786 8.289577695499685E-4 0.0014982606876284786
4417275.630574674 8.302785828984004E-4 0.0015355034203249176 0.9991697214171015 -0.0015355034203249176 0.9991697214171015 -0.0015355034203249176 8.302785828984004E-4 0.0015355034203249176
4528006.841183222 8.316578311018199E-4 0.0015736580164245103 0.9991683421688982 -0.0015736580164245103 0.9991683421688982 -0.0015736580164245103 8.316578311018199E-4 0.0015736580164245103
4641513.835335356 8.330976974763756E-4 0.001612745964166651 0.9991669023025238 -0.0016127459641666513 0.9991669023025238 -0.0016127459641666513 8.330976974763756E-4 0.001612745964166651
4757866.195710057 8.346004107072705E-4 0.001652789219062577 0.9991653995892927 -0.001652789219062577 0.9991653995892927 -0.001652789219062577 8.346004107072705E-4 0.001652789219062577
4877135.249268283 8.361682424891426E-4 0.0016938102136418163 0.999163831757511 -0.0016938102136418165 0.999163831757511 -0.0016938102136418165 8.361682424891426E-4 0.0016938102136418163
4999394.110978219 8.37803504827896E-4 0.001735831867605961 0.9991621964951721 -0.001735831867605961 0.9991621964951721 -0.001735831867605961 8.37803504827896E-4 0.001735831867605961
5124717.728636608 8.395085469929409E-4 0.0017788775984322687 0.9991604914530072 -0.0017788775984322687 0.9991604914530072 -0.0017788775984322687 8.395085469929409E-4 0.0017788775984322687
5253182.928813668 8.412857521112142E-4 0.0018229713324730127 0.9991587142478888 -0.0018229713324730123 0.9991587142478888 -0.0018229713324730123 8.412857521112142E-4 0.0018229713324730127
5384868.463949725 8.431375333973222E-4 0.001868137516599906 0.9991568624666027 -0.0018681375165999058 0.9991568624666027 -0.0018681375165999058 8.431375333973222E-4 0.001868137516599906
5519855.060632478 8.45066330017558E-4 0.001914401130446222 0.9991549336699826 -0.001914401130446222 0.9991549336699826 -0.001914401130446222 8.45066330017558E-4 0.001914401130446222
5658225.469084448 8.470746025895967E-4 0.0019617876993024285 0.9991529253974106 -0.001961787699302429 0.9991529253974106 -0.001961787699302429 8.470746025895967E-4 0.0019617876993024285
5800064.5138909705 8.491648283242011E-4 0.002010323307724104 0.9991508351716758 -0.002010323307724104 0.9991508351716758 -0.002010323307724104 8.491648283242011E-4 0.002010323307724104
5945459.1459998265 8.513394958204672E-4 0.00206003461391357 0.9991486605041795 -0.00206003461391357 0.9991486605041795 -0.00206003461391357 8.513394958204672E-4 0.00206003461391357
6094498.496024397 8.536010995318649E-4 0.0021109488649389586 0.9991463989004681 -0.0021109488649389586 0.9991463989004681 -0.0021109488649389586 8.536010995318649E-4 0.0021109488649389586
6247273.928882989 8.559521339266687E-4 0.0021630939128561995 0.9991440478660734 -0.0021630939128561995 0.9991440478660734 -0.0021630939128561995 8.559521339266687E-4 0.0021630939128561995
6403879.099807864 8.583950873732981E-4 0.0022164982318006623 0.9991416049126268 -0.0022164982318006623 0.9991416049126268 -0.0022164982318006623 8.583950873732981E-4 0.0022164982318006623
6564410.01175828 8.609324357884698E-4 0.0022711909361156496 0.9991390675642117 -0.00227119093611565 0.9991390675642117 -0.00227119093611565 8.609324357884698E-4 0.0022711909361156496
6728965.074272751 8.635666360940133E-4 0.002327201799584669 0.999136433363906 -0.0023272017995846694 0.999136433363906 -0.0023272017995846694 8.635666360940133E-4 0.002327201799584669
6897645.163796601 8.663001195364644E-4 0.002384561275833159 0.9991336998804635 -0.002384561275833159 0.9991336998804635 -0.002384561275833159 8.663001195364644E-4 0.002384561275833159
7070553.685521795 8.691352849322147E-4 0.002443300519963144 0.9991308647150678 -0.0024433005199631435 0.9991308647150678 -0.0024433005199631435 8.691352849322147E-4 0.002443300519963144
7247796.636776956 8.720744919097534E-4 0.002503451411480828 0.99912792550809 -0.002503451411480828 0.99912792550809 -0.002503451411480828 8.720744919097534E-4 0.002503451411480828
7429482.672006426 8.751200542294486E-4 0.0025650465785726274 0.9991248799457705 -0.0025650465785726274 0.9991248799457705 -0.0025650465785726274 8.751200542294486E-4 0.0025650465785726274
7615723.169378211 8.782742332700595E-4 0.0026281194237791246 0.9991217257667299 -0.002628119423779125 0.9991217257667299 -0.002628119423779125 8.782742332700595E-4 0.0026281194237791246
7806632.299061636 8.815392317796626E-4 0.0026927041511092134 0.9991184607682204 -0.0026927041511092134 0.9991184607682204 -0.0026927041511092134 8.815392317796626E-4 0.0026927041511092134
8002327.093216563 8.8491718799666E-4 0.0027588357946279635 0.9991150828120033 -0.0027588357946279635 0.9991150828120033 -0.0027588357946279635 8.8491718799666E-4 0.0027588357946279635
8202927.517737088 8.884101702538514E-4 0.002826550248541665 0.9991115898297462 -0.002826550248541665 0.9991115898297462 -0.002826550248541665 8.884101702538514E-4 0.002826550248541665
8408556.545793694 8.920201721848833E-4 0.002895884298791966 0.9991079798278151 -0.002895884298791966 0.9991079798278151 -0.002895884298791966 8.920201721848833E-4 0.002895884298791966
8619340.233218929 8.95749108657578E-4 0.0029668756561582153 0.9991042508913425 -0.0029668756561582153 0.9991042508913425 -0.0029668756561582153 8.95749108657578E-4 0.0029668756561582153
8835407.795782853 8.995988125623814E-4 0.003039562990853027 0.9991004011874376 -0.003039562990853027 0.9991004011874376 -0.003039562990853027 8.995988125623814E-4 0.003039562990853027
9056891.68840559 9.03571032586256E-4 0.00311398596858094 0.9990964289674137 -0.00311398596858094 0.9990964289674137 -0.00311398596858094 9.03571032586256E-4 0.00311398596858094
9283927.68635557 9.076674321024864E-4 0.0031901852880139615 0.9990923325678974 -0.003190185288013961 0.9990923325678974 -0.003190185288013961 9.076674321024864E-4 0.0031901852880139615
9516654.968483225 9.118895893049521E-4 0.003268202719621054 0.9990881104106951 -0.003268202719621054 0.9990881104106951 -0.003268202719621054 9.118895893049521E-4 0.003268202719621054
9755216.202541174 9.162389987111424E-4 0.0033480811457715586 0.9990837610012889 -0.0033480811457715586 0.9990837610012889 -0.0033480811457715586 9.162389987111424E-4 0.0033480811457715586
9999757.632643187 9.207170741514682E-4 0.0034298646020152566 0.9990792829258482 -0.0034298646020152566 0.9990792829258482 -0.0034298646020152566 9.207170741514682E-4 0.0034298646020152566
1.0250429168915551E7 9.253251533531963E-4 0.0035135983194250196 0.9990746748466469 -0.0035135983194250196 0.9990746748466469 -0.0035135983194250196 9.253251533531963E-4 0.0035135983194250196
1.0507384479395809E7 9.300645042153975E-4 0.0035993287678716596 0.9990699354957847 -0.0035993287678716596 0.9990699354957847 -0.0035993287678716596 9.300645042153975E-4 0.0035993287678716596
1.0770781084235158E7 9.349363328568792E-4 0.003687103700085571 0.9990650636671431 -0.003687103700085571 0.9990650636671431 -0.003687103700085571 9.349363328568792E-4 0.003687103700085571
1.1040780452262333E7 9.399417935020531E-4 0.003776972196346119 0.9990600582064979 -0.003776972196346119 0.9990600582064979 -0.003776972196346119 9.399417935020531E-4 0.003776972196346119
1.1317548099968107E7 9.450820002503397E-4 0.0038689847096280584 0.9990549179997497 -0.0038689847096280584 0.9990549179997497 -0.0038689847096280584 9.450820002503397E-4 0.0038689847096280584
1.1601253692971118E7 9.503580407532456E-4 0.00396319311102495 0.9990496419592468 -0.003963193111024951 0.9990496419592468 -0.003963193111024951 9.503580407532456E-4 0.00396319311102495
1.189207115002721E7 9.557709917999191E-4 0.004059650735262974 0.9990442290081999 -0.0040596507352629735 0.9990442290081999 -0.0040596507352629735 9.557709917999191E-4 0.004059650735262974
1.219017874964607E7 9.613219367871908E-4 0.004158412426114945 0.9990386780632129 -0.004158412426114944 0.9990386780632129 -0.004158412426114944 9.613219367871908E-4 0.004158412426114945
1.2495759239380483E7 9.670119850243224E-4 0.004259534581524176 0.9990329880149756 -0.004259534581524177 0.9990329880149756 -0.004259534581524177 9.670119850243224E-4 0.004259534581524176
1.2808999947855253E7 9.728422927963051E-4 0.004363075198251216 0.9990271577072037 -0.004363075198251216 0.9990271577072037 -0.004363075198251216 9.728422927963051E-4 0.004363075198251216
1.3130092899604408E7 9.788140860831841E-4 0.004469093915863414 0.9990211859139169 -0.004469093915863414 0.9990211859139169 -0.004469093915863414 9.788140860831841E-4 0.004469093915863414
1.3459234932787143E7 9.849286848070792E-4 0.004577652059898219 0.999015071315193 -0.004577652059898219 0.999015071315193 -0.004577652059898219 9.849286848070792E-4 0.004577652059898219
1.3796627819854613E7 9.911875284538175E-4 0.004688812684045379 0.999008812471546 -0.004688812684045379 0.999008812471546 -0.004688812684045379 9.911875284538175E-4 0.004688812684045379
1.4142478391241603E7 9.97592202893113E-4 0.0048026406112113675 0.999002407797107 -0.0048026406112113675 0.999002407797107 -0.0048026406112113675 9.97592202893113E-4 0.0048026406112113675
1.4496998662158832E7 0.0010041444682003478 0.004919202473350505 0.9989958555317996 -0.004919202473350505 0.9989958555317996 -0.004919202473350505 0.0010041444682003478 0.004919202473350505
1.4860405962563697E7 0.0010108462872649296 0.005038566749971606 0.998989153712735 -0.005038566749971606 0.998989153712735 -0.005038566749971606 0.0010108462872649296 0.005038566749971606
1.5232923070389066E7 0.0010176998549551843 0.005160803805255663 0.9989823001450449 -0.005160803805255662 0.9989823001450449 -0.005160803805255662 0.0010176998549551843 0.005160803805255663
1.5614778348111821E7 0.001024707627598301 0.0052859859237490365 0.9989752923724018 -0.0052859859237490365 0.9989752923724018 -0.0052859859237490365 0.001024707627598301 0.0052859859237490365
1.6006205882744886E7 0.0010318723525260805 0.0054141873446269485 0.9989681276474738 -0.0054141873446269485 0.9989681276474738 -0.0054141873446269485 0.0010318723525260805 0.0054141873446269485
1.6407445629338508E7 0.001039197097433531 0.005545484294553427 0.9989608029025664 -0.005545484294553427 0.9989608029025664 -0.005545484294553427 0.001039197097433531 0.005545484294553427
1.6818743558078855E7 0.001046685279297542 0.00567995501919553 0.9989533147207025 -0.00567995501919553 0.9989533147207025 -0.00567995501919553 0.001046685279297542 0.00567995501919553
1.724035180507396E7 0.0010543406926071851 0.005817679813481227 0.9989456593073929 -0.005817679813481227 0.9989456593073929 -0.005817679813481227 0.0010543406926071851 0.005817679813481227
1.7672528826919604E7 0.0010621675366652287 0.005958741050720869 0.998937832463335 -0.0059587410507208685 0.998937832463335 -0.0059587410507208685 0.0010621675366652287 0.005958741050720869
1.811553955913979E7 0.0010701704417322795 0.006103223210741711 0.9989298295582676 -0.006103223210741711 0.9989298295582676 -0.006103223210741711 0.0010701704417322795 0.006103223210741711
1.856965557859896E7 0.0010783544938000053 0.006251212907212302 0.9989216455061999 -0.006251212907212301 0.9989216455061999 -0.006251212907212301 0.0010783544938000053 0.006251212907212302
1.9035155269985557E7 0.0010867252577980286 0.00640279891435915 0.998913274742202 -0.00640279891435915 0.998913274742202 -0.00640279891435915 0.0010867252577980286 0.00640279891435915
1.951232399646889E7 0.001095288799059658 0.00655807219330073 0.9989047112009404 -0.006558072193300729 0.9989047112009404 -0.006558072193300729 0.001095288799059658 0.00655807219330073
2.0001454274634056E7 0.0011040517028944252 0.0067171259182442315 0.9988959482971055 -0.00671712591824423 0.9988959482971055 -0.00671712591824423 0.0011040517028944252 0.0067171259182442315
2.050284595380206E7 0.0011130210921397215 0.0068800555028074965 0.9988869789078603 -0.0068800555028074965 0.9988869789078603 -0.0068800555028074965 0.0011130210921397215 0.0068800555028074965
2.101680639984507E7 0.001122204642589381 0.0070469586267429725 0.9988777953574106 -0.007046958626742972 0.9988777953574106 -0.007046958626742972 0.001122204642589381 0.0070469586267429725
2.1543650683609527E7 0.001131610596223367 0.007217935263352042 0.9988683894037768 -0.007217935263352043 0.9988683894037768 -0.007217935263352043 0.001131610596223367 0.007217935263352042
2.2083701774062626E7 0.001141247772189253 0.007393087707886484 0.9988587522278108 -0.007393087707886484 0.9988587522278108 -0.007393087707886484 0.001141247772189253 0.007393087707886484
2.2637290736280486E7 0.0011511255755128078 0.007572520607240004 0.9988488744244872 -0.007572520607240004 0.9988488744244872 -0.007572520607240004 0.0011511255755128078 0.007572520607240004
2.3204756934399508E7 0.0011612540035411967 0.007756340991236383 0.9988387459964587 -0.007756340991236383 0.9988387459964587 -0.007756340991236383 0.0011612540035411967 0.007756340991236383
2.37864482396552E7 0.0011716436501480298 0.007944658305822219 0.998828356349852 -0.007944658305822219 0.998828356349852 -0.007944658305822219 0.0011716436501480298 0.007944658305822219
2.4382721243636142E7 0.001182305707754441 0.008137584448471949 0.9988176942922457 -0.008137584448471949 0.9988176942922457 -0.008137584448471949 0.001182305707754441 0.008137584448471949
2.49939414768837E7 0.0011932519672446594 0.008335233806111007 0.9988067480327552 -0.008335233806111007 0.9988067480327552 -0.008335233806111007 0.0011932519672446594 0.008335233806111007
2.5620483632971536E7 0.0012044948158778984 0.00853772329585959 0.9987955051841221 -0.008537723295859593 0.9987955051841221 -0.008537723295859593 0.0012044948158778984 0.00853772329585959
2.626273179820236E7 0.0012160472333211777 0.008745172408895564 0.9987839527666788 -0.008745172408895564 0.9987839527666788 -0.008745172408895564 0.0012160472333211777 0.008745172408895564
2.6921079687062584E7 0.0012279227859497335 0.008957703257729654 0.9987720772140504 -0.008957703257729654 0.9987720772140504 -0.008957703257729654 0.0012279227859497335 0.008957703257729654
2.759593088357934E7 0.001240135619583406 0.009175440627180608 0.9987598643804168 -0.009175440627180608 0.9987598643804168 -0.009175440627180608 0.001240135619583406 0.009175440627180608
2.828769908872777E7 0.0012527004508487418 0.009398512029331348 0.9987472995491512 -0.009398512029331346 0.9987472995491512 -0.009398512029331346 0.0012527004508487418 0.009398512029331348
2.8996808374040272E7 0.0012656325573779845 0.009627047762740417 0.9987343674426221 -0.009627047762740417 0.9987343674426221 -0.009627047762740417 0.0012656325573779845 0.009627047762740417
2.9723693441573136E7 0.0012789477670776125 0.00986118097617524 0.9987210522329223 -0.00986118097617524 0.9987210522329223 -0.00986118097617524 0.0012789477670776125 0.00986118097617524
3.046879989038998E7 0.0012926624467210512 0.01010104773712549 0.998707337553279 -0.010101047737125491 0.998707337553279 -0.010101047737125491 0.0012926624467210512 0.01010104773712549
3.123258448972537E7 0.0013067934901426074 0.010346787105345454 0.9986932065098574 -0.010346787105345454 0.9986932065098574 -0.010346787105345454 0.0013067934901426074 0.010346787105345454
3.2015515458995927E7 0.0013213583063328021 0.010598541211663818 0.9986786416936672 -0.010598541211663818 0.9986786416936672 -0.010598541211663818 0.0013213583063328021 0.010598541211663818
3.2818072754830793E7 0.0013363748077591488 0.010856455342287328 0.9986636251922408 -0.010856455342287326 0.9986636251922408 -0.010856455342287326 0.0013363748077591488 0.010856455342287328
3.3640748365297295E7 0.0013518613992609698 0.011120678028810812 0.9986481386007391 -0.011120678028810812 0.9986481386007391 -0.011120678028810812 0.0013518613992609698 0.011120678028810812
3.448404661150211E7 0.001367836967892092 0.011391361144130153 0.9986321630321079 -0.011391361144130153 0.9986321630321079 -0.011391361144130153 0.001367836967892092 0.011391361144130153
3.5348484456753E7 0.001384320874110934 0.011668660004435985 0.9986156791258892 -0.011668660004435987 0.9986156791258892 -0.011668660004435987 0.001384320874110934 0.011668660004435985
3.623459182347044E7 0.0014013329447433577 0.011952733477444256 0.9985986670552565 -0.011952733477444256 0.9985986670552565 -0.011952733477444256 0.0014013329447433577 0.011952733477444256
3.714291191804364E7 0.0014188934681693612 0.012243744096994946 0.9985811065318305 -0.012243744096994944 0.9985811065318305 -0.012243744096994944 0.0014188934681693612 0.012243744096994946
3.80740015638298E7 0.0014370231922097355 0.012541858184121428 0.99856297680779 -0.012541858184121428 0.99856297680779 -0.012541858184121428 0.0014370231922097355 0.012541858184121428
3.90284315425011E7 0.001455743325212627 0.012847245974660686 0.9985442566747873 -0.012847245974660686 0.9985442566747873 -0.012847245974660686 0.001455743325212627 0.012847245974660686
4.0006786943948336E7 0.001475075540861948 0.013160081753437861 0.9985249244591381 -0.01316008175343786 0.9985249244591381 -0.01316008175343786 0.001475075540861948 0.013160081753437861
4.100966752495598E7 0.001495041987249012 0.01348054399501826 0.998504958012751 -0.01348054399501826 0.998504958012751 -0.01348054399501826 0.001495041987249012 0.01348054399501826
4.203768807686834E7 0.0015156653007648562 0.013808815510975304 0.9984843346992351 -0.013808815510975304 0.9984843346992351 -0.013808815510975304 0.0015156653007648562 0.013808815510975304
4.3091478802472346E7 0.0015369686253827127 0.014145083603574587 0.9984630313746174 -0.014145083603574587 0.9984630313746174 -0.014145083603574587 0.0015369686253827127 0.014145083603574587
4.417168570232784E7 0.0015589756379071314 0.014489540225722413 0.9984410243620929 -0.014489540225722413 0.9984410243620929 -0.014489540225722413 0.0015589756379071314 0.014489540225722413
4.527897097078249E7 0.001581710579767677 0.014842382146973115 0.9984182894202321 -0.014842382146973115 0.9984182894202321 -0.014842382146973115 0.001581710579767677 0.014842382146973115
4.641401340191368E7 0.001605198295929989 0.015203811125332176 0.9983948017040701 -0.015203811125332175 0.9983948017040701 -0.015203811125332175 0.001605198295929989 0.015203811125332176
4.757750880564664E7 0.0016294642814849388 0.015574034084534675 0.998370535718515 -0.015574034084534675 0.998370535718515 -0.015574034084534675 0.0016294642814849388 0.015574034084534675
4.877017043430364E7 0.0016545347364569105 0.015953263296420415 0.9983454652635431 -0.015953263296420415 0.9983454652635431 -0.015953263296420415 0.0016545347364569105 0.015953263296420415
4.999272941984584E7 0.001680436629344564 0.016341716567969462 0.9983195633706555 -0.016341716567969462 0.9983195633706555 -0.016341716567969462 0.001680436629344564 0.016341716567969462
5.124593522207578E7 0.001707197769871726 0.016739617432507063 0.9982928022301283 -0.016739617432507063 0.9982928022301283 -0.016739617432507063 0.001707197769871726 0.016739617432507063
5.2530556088075355E7 0.0017348468913821688 0.017147195344535054 0.9982651531086179 -0.017147195344535054 0.9982651531086179 -0.017147195344535054 0.0017348468913821688 0.017147195344535054
5.384737952316085E7 0.0017634137432603891 0.017564685877600242 0.9982365862567395 -0.01756468587760024 0.9982365862567395 -0.01756468587760024 0.0017634137432603891 0.017564685877600242
5.5197212773643754E7 0.001792929193701478 0.017992330924569533 0.9982070708062986 -0.017992330924569533 0.9982070708062986 -0.017992330924569533 0.001792929193701478 0.017992330924569533
5.658088332169327E7 0.0018234253430876625 0.018430378899648926 0.9981765746569121 -0.018430378899648926 0.9981765746569121 -0.018430378899648926 0.0018234253430876625 0.018430378899648926
5.7999239392604105E7 0.0018549356481580295 0.018879084941459352 0.998145064351842 -0.018879084941459352 0.998145064351842 -0.018879084941459352 0.0018549356481580295 0.018879084941459352
5.945315047477999E7 0.0018874950570826224 0.019338711116467927 0.9981125049429173 -0.019338711116467927 0.9981125049429173 -0.019338711116467927 0.0018874950570826224 0.019338711116467927
6.0943507852752365E7 0.0019211401554739959 0.019809526622070424 0.9980788598445259 -0.019809526622070424 0.9980788598445259 -0.019809526622070424 0.0019211401554739959 0.019809526622070424
6.247122515356044E7 0.0019559093232901347 0.020291807988628428 0.99804409067671 -0.020291807988628428 0.99804409067671 -0.020291807988628428 0.0019559093232901347 0.020291807988628428
6.403723890682785E7 0.0019918429025040864 0.02078583927978503 0.9980081570974958 -0.02078583927978503 0.9980081570974958 -0.02078583927978503 0.0019918429025040864 0.02078583927978503
6.564250911887919E7 0.0020289833753398155 0.021291912290414872 0.9979710166246603 -0.02129191229041487 0.9979710166246603 -0.02129191229041487 0.0020289833753398155 0.021291912290414872
6.728801986124834E7 0.002067375552802354 0.021810326741607967 0.9979326244471978 -0.021810326741607967 0.9979326244471978 -0.021810326741607967 0.002067375552802354 0.021810326741607967
6.897477987393941E7 0.002107066773165449 0.022341390472141662 0.9978929332268347 -0.02234139047214166 0.9978929332268347 -0.02234139047214166 0.002107066773165449 0.022341390472141662
7.070382318380997E7 0.0021481071100231913 0.022885419625959774 0.9978518928899769 -0.022885419625959774 0.9978518928899769 -0.022885419625959774 0.0021481071100231913 0.022885419625959774
7.247620973845597E7 0.002190549589465394 0.02344273883525252 0.9978094504105347 -0.023442738835252525 0.9978094504105347 -0.023442738835252525 0.002190549589465394 0.02344273883525252
7.429302605598654E7 0.0022344504159009892 0.024013681398811004 0.997765549584099 -0.024013681398811004 0.997765549584099 -0.024013681398811004 0.0022344504159009892 0.024013681398811004
7.615538589108732E7 0.0022798692060308624 0.024598589455418044 0.9977201307939692 -0.024598589455418044 0.9977201307939692 -0.024598589455418044 0.0022798692060308624 0.024598589455418044
7.806443091778043E7 0.0023268692304618845 0.025197814152126796 0.9976731307695381 -0.025197814152126793 0.9976731307695381 -0.025197814152126793 0.0023268692304618845 0.025197814152126796
8.00213314292997E7 0.00237551766245825 0.025811715807371308 0.9976244823375416 -0.025811715807371315 0.9976244823375416 -0.025811715807371315 0.00237551766245825 0.025811715807371308
8.202728705551027E7 0.002425885833344383 0.026440664068944127 0.9975741141666555 -0.02644066406894413 0.9975741141666555 -0.02644066406894413 0.002425885833344383 0.026440664068944127
8.408352749831231E7 0.0024780494941057407 0.02708503806696537 0.9975219505058944 -0.02708503806696537 0.9975219505058944 -0.02708503806696537 0.0024780494941057407 0.02708503806696537
8.619131328547949E7 0.002532089082778844 0.02774522656205112 0.9974679109172212 -0.027745226562051122 0.9974679109172212 -0.027745226562051122 0.002532089082778844 0.02774522656205112
8.83519365433947E7 0.0025880899972792622 0.028421628088967057 0.9974119100027207 -0.028421628088967057 0.9974119100027207 -0.028421628088967057 0.0025880899972792622 0.028421628088967057
9.056672178915645E7 0.0026461428733844106 0.029114651096121616 0.9973538571266155 -0.029114651096121616 0.9973538571266155 -0.029114651096121616 0.0026461428733844106 0.029114651096121616
9.28370267425415E7 0.0027063438676657153 0.029824714081312473 0.9972936561323342 -0.029824714081312473 0.9972936561323342 -0.029824714081312473 0.0027063438676657153 0.029824714081312473
9.516424315832183E7 0.002768794945250118 0.03055224572418874 0.99723120505475 -0.03055224572418874 0.99723120505475 -0.03055224572418874 0.002768794945250118 0.03055224572418874
9.754979767944558E7 0.0028336041723821086 0.03129768501592739 0.9971663958276178 -0.03129768501592739 0.9971663958276178 -0.03129768501592739 0.0028336041723821086 0.03129768501592739
9.999515271160565E7 0.0029008860138528643 0.03206148138664768 0.997099113986147 -0.03206148138664768 0.997099113986147 -0.03206148138664768 0.0029008860138528643 0.03206148138664768
1.0250180731973167E8 0.002970761635460334 0.03284409483109919 0.9970292383645397 -0.03284409483109919 0.9970292383645397 -0.03284409483109919 0.002970761635460334 0.03284409483109919
1.0507129814695476E8 0.0030433592117617677 0.03364599603315931 0.9969566407882383 -0.03364599603315931 0.9969566407882383 -0.03364599603315931 0.0030433592117617677 0.03364599603315931
1.0770520035660933E8 0.0031188142394763876 0.03446766648966637 0.9968811857605235 -0.034467666489666364 0.9968811857605235 -0.034467666489666364 0.0031188142394763876 0.03446766648966637
1.1040512859784792E8 0.0031972698569888345 0.03530959863409075 0.9968027301430111 -0.03530959863409076 0.9968027301430111 -0.03530959863409076 0.0031972698569888345 0.03530959863409075
1.1317273799546245E8 0.00327887717049286 0.036172295960517416 0.9967211228295071 -0.036172295960517416 0.9967211228295071 -0.036172295960517416 0.00327887717049286 0.036172295960517416
1.1600972516451786E8 0.00336379558739796 0.03705627314837256 0.9966362044126019 -0.03705627314837256 0.9966362044126019 -0.03705627314837256 0.00336379558739796 0.03705627314837256
1.1891782925042039E8 0.0034521931576986056 0.03796205618828161 0.9965478068423013 -0.03796205618828161 0.9965478068423013 -0.03796205618828161 0.0034521931576986056 0.03796205618828161
1.2189883299505801E8 0.003544246924075962 0.038890182509394 0.9964557530759242 -0.03889018250939401 0.9964557530759242 -0.03889018250939401 0.003544246924075962 0.038890182509394
1.2495456382966657E8 0.0036401432815650336 0.03984120110845444 0.996359856718435 -0.03984120110845444 0.996359856718435 -0.03984120110845444 0.0036401432815650336 0.03984120110845444
1.280868949950917E8 0.0037400783476765473 0.040815672680843726 0.9962599216523236 -0.04081567268084373 0.9962599216523236 -0.04081567268084373 0.0037400783476765473 0.040815672680843726
1.3129774669013327E8 0.0038442583439121827 0.041814169753752226 0.9961557416560877 -0.04181416975375222 0.9961557416560877 -0.04181416975375222 0.0038442583439121827 0.041814169753752226
1.34589087248676E8 0.003952899989655392 0.042837276821591865 0.9960471000103446 -0.042837276821591865 0.9960471000103446 -0.042837276821591865 0.003952899989655392 0.042837276821591865
1.3796293434632847E8 0.004066230909458183 0.04388559048369606 0.9959337690905418 -0.04388559048369606 0.9959337690905418 -0.04388559048369606 0.004066230909458183 0.04388559048369606
1.4142135623730952E8 0.004184490054778126 0.04495971958430225 0.9958155099452219 -0.04495971958430225 0.9958155099452219 -0.04495971958430225 0.004184490054778126 0.04495971958430225
1.4496647302234071E8 0.004307928141250827 0.04606028535476245 0.995692071858749 -0.04606028535476245 0.995692071858749 -0.04606028535476245 0.004307928141250827 0.04606028535476245
1.486004579483226E8 0.004436808102612243 0.04718792155788111 0.9955631918973877 -0.04718792155788111 0.9955631918973877 -0.04718792155788111 0.004436808102612243 0.04718792155788111
1.523255387405894E8 0.004571405562413871 0.04834327463423625 0.9954285944375861 -0.04834327463423625 0.9954285944375861 -0.04834327463423625 0.004571405562413871 0.04834327463423625
1.5614399896856272E8 0.00471200932470424 0.04952700385030621 0.9952879906752957 -0.04952700385030621 0.9952879906752957 -0.04952700385030621 0.00471200932470424 0.04952700385030621
1.600581794456363E8 0.004858921884882582 0.050739781448188546 0.9951410781151174 -0.050739781448188546 0.9951410781151174 -0.050739781448188546 0.004858921884882582 0.050739781448188546
1.6407047966415587E8 0.005012459961968085 0.05198229279667308 0.9949875400380319 -0.05198229279667308 0.9949875400380319 -0.05198229279667308 0.005012459961968085 0.05198229279667308
1.681833592663674E8 0.0051729550535709575 0.05325523654340384 0.994827044946429 -0.05325523654340385 0.994827044946429 -0.05325523654340385 0.0051729550535709575 0.05325523654340384
1.723993395522421E8 0.005340754014902563 0.05455932476784719 0.9946592459850974 -0.054559324767847174 0.9946592459850974 -0.054559324767847174 0.005340754014902563 0.05455932476784719
1.76721005025096E8 0.00551621966322105 0.05589528313476008 0.994483780336779 -0.05589528313476007 0.994483780336779 -0.05589528313476007 0.00551621966322105 0.05589528313476008
1.8115100497595772E8 0.00569973140917941 0.0572638510478378 0.9943002685908207 -0.0572638510478378 0.9943002685908207 -0.0572638510478378 0.00569973140917941 0.0572638510478378
1.8569205510765004E8 0.0058916859166243275 0.05866578180319791 0.9941083140833756 -0.05866578180319791 0.9941083140833756 -0.05866578180319791 0.0058916859166243275 0.05866578180319791
1.903469391995863E8 0.006092497792489042 0.06010184274233692 0.993907502207511 -0.06010184274233692 0.993907502207511 -0.06010184274233692 0.006092497792489042 0.06010184274233692
1.951185108142965E8 0.006302600308531856 0.06157281540416726 0.9936973996914682 -0.06157281540416726 0.9936973996914682 -0.06157281540416726 0.006302600308531856 0.06157281540416726
2.0000969504673564E8 0.006522446156795516 0.06307949567571096 0.9934775538432045 -0.06307949567571096 0.9934775538432045 -0.06307949567571096 0.006522446156795516 0.06307949567571096
2.050234903174396E8 0.006752508240800926 0.06462269394097865 0.9932474917591991 -0.06462269394097865 0.9932474917591991 -0.06462269394097865 0.006752508240800926 0.06462269394097865
2.1016297021063498E8 0.006993280504643513 0.06620323522751177 0.9930067194953565 -0.06620323522751179 0.9930067194953565 -0.06620323522751179 0.006993280504643513 0.06620323522751177
2.154312853584229E8 0.007245278802330189 0.06782195934999 0.9927547211976699 -0.06782195934999 0.9927547211976699 -0.06782195934999 0.007245278802330189 0.06782195934999
2.208316653721987E8 0.0075090418098809255 0.06947972105022143 0.992490958190119 -0.06947972105022143 0.992490958190119 -0.06947972105022143 0.0075090418098809255 0.06947972105022143
2.2636742082248363E8 0.007785131982918718 0.07117739013271812 0.9922148680170813 -0.07117739013271812 0.9922148680170813 -0.07117739013271812 0.007785131982918718 0.07117739013271812
2.3204194526839143E8 0.008074136562686744 0.07291585159492939 0.9919258634373134 -0.07291585159492939 0.9919258634373134 -0.07291585159492939 0.008074136562686744 0.07291585159492939
2.3785871733796412E8 0.00837666863365674 0.07469600575103519 0.9916233313663434 -0.0746960057510352 0.9916233313663434 -0.0746960057510352 0.00837666863365674 0.07469600575103519
2.4382130286066177E8 0.008693368236130617 0.07651876834801509 0.9913066317638694 -0.07651876834801509 0.9913066317638694 -0.07651876834801509 0.008693368236130617 0.07651876834801509
2.499333570533048E8 0.009024903537479999 0.0783850706724684 0.9909750964625201 -0.0783850706724684 0.9909750964625201 -0.0783850706724684 0.009024903537479999 0.0783850706724684
2.5619862676081702E8 0.00937197206591875 0.08029585964640135 0.9906280279340812 -0.08029585964640135 0.9906280279340812 -0.08029585964640135 0.00937197206591875 0.08029585964640135
2.6262095275313488E8 0.009735302010951902 0.08225209790987953 0.990264697989048 -0.08225209790987953 0.990264697989048 -0.08225209790987953 0.009735302010951902 0.08225209790987953
2.6920427207969934E8 0.010115653594891935 0.0842547638880944 0.9898843464051081 -0.08425476388809439 0.9898843464051081 -0.08425476388809439 0.010115653594891935 0.0842547638880944
2.759526204829662E8 0.01051382052007049 0.08630485183998592 0.9894861794799296 -0.08630485183998592 0.9894861794799296 -0.08630485183998592 0.01051382052007049 0.08630485183998592
2.82870134872419E8 0.010930631496599128 0.08840337188511678 0.9890693685034007 -0.0884033718851168 0.9890693685034007 -0.0884033718851168 0.010930631496599128 0.08840337188511678
2.89961055860601E8 0.011366951855737764 0.09055135000499052 0.9886330481442623 -0.09055135000499052 0.9886330481442623 -0.09055135000499052 0.011366951855737764 0.09055135000499052
2.97229730362717E8 0.011823685254108604 0.0927498280144511 0.9881763147458913 -0.0927498280144511 0.9881763147458913 -0.0927498280144511 0.011823685254108604 0.0927498280144511
3.046806142614051E8 0.01230177547414188 0.09499986349820397 0.9876982245258582 -0.09499986349820397 0.9876982245258582 -0.09499986349820397 0.01230177547414188 0.09499986349820397
3.123182751383044E8 0.01280220832624649 0.09730252970683648 0.9871977916737535 -0.09730252970683648 0.9871977916737535 -0.09730252970683648 0.01280220832624649 0.09730252970683648
3.2014739507410055E8 0.013326013658262286 0.09965891540602077 0.9866739863417376 -0.09965891540602076 0.9866739863417376 -0.09965891540602076 0.013326013658262286 0.09965891540602077
3.2817277351875854E8 0.013874267477758466 0.10207012467182738 0.9861257325222416 -0.10207012467182738 0.9861257325222416 -0.10207012467182738 0.013874267477758466 0.10207012467182738
3.363993302337105E8 0.014448094192693486 0.10453727662429314 0.9855519058073066 -0.10453727662429316 0.9855519058073066 -0.10453727662429316 0.014448094192693486 0.10453727662429314
3.4483210830779153E8 0.015048668975833686 0.10706150509055253 0.9849513310241665 -0.10706150509055253 0.9849513310241665 -0.10706150509055253 0.015048668975833686 0.10706150509055253
3.534762772487849E8 0.01567722025814153 0.10964395818798994 0.9843227797418587 -0.10964395818798997 0.9843227797418587 -0.10964395818798997 0.01567722025814153 0.10964395818798994
3.6233713615245885E8 0.0163350323560777 0.11228579781697728 0.9836649676439222 -0.11228579781697728 0.9836649676439222 -0.11228579781697728 0.0163350323560777 0.11228579781697728
3.714201169510506E8 0.017023448237417343 0.11498819905186537 0.9829765517625828 -0.1149881990518654 0.9829765517625828 -0.1149881990518654 0.017023448237417343 0.11498819905186537
3.807307877431756E8 0.01774387242974998 0.1177523494179772 0.9822561275702499 -0.1177523494179772 0.9822561275702499 -0.1177523494179772 0.01774387242974998 0.1177523494179772
3.902748562072176E8 0.018497774075320092 0.120579448041443 0.98150222592468 -0.120579448041443 0.98150222592468 -0.120579448041443 0.018497774075320092 0.120579448041443
4.00058173100277E8 0.019286690135261974 0.12347070465779561 0.980713309864738 -0.12347070465779561 0.980713309864738 -0.12347070465779561 0.019286690135261974 0.12347070465779561
4.100867358448381E8 0.02011222874559989 0.1264273384643599 0.9798877712544001 -0.1264273384643599 0.9798877712544001 -0.1264273384643599 0.02011222874559989 0.1264273384643599
4.203666922053376E8 0.020976072726612022 0.1294505768005793 0.9790239272733878 -0.1294505768005793 0.9790239272733878 -0.1294505768005793 0.020976072726612022 0.1294505768005793
4.3090434405690503E8 0.021879983246310748 0.1325416536395857 0.9781200167536891 -0.13254165363958567 0.9781200167536891 -0.13254165363958567 0.021879983246310748 0.1325416536395857
4.4170615124856865E8 0.02282580363786318 0.13570180787349018 0.9771741963621369 -0.13570180787349018 0.9771741963621369 -0.13570180787349018 0.02282580363786318 0.13570180787349018
4.5277873556331164E8 0.023815463369782592 0.13893228137410316 0.9761845366302172 -0.13893228137410313 0.9761845366302172 -0.13893228137410313 0.023815463369782592 0.13893228137410316
4.641288847773893E8 0.02485098216665541 0.1422343168100403 0.9751490178333446 -0.14223431681004034 0.9751490178333446 -0.14223431681004034 0.02485098216665541 0.1422343168100403
4.757635568214135E8 0.025934474277048532 0.1456091552004828 0.9740655257229515 -0.14560915520048281 0.9740655257229515 -0.14560915520048281 0.025934474277048532 0.1456091552004828
4.876898840457368E8 0.027068152884060444 0.1490580331851905 0.9729318471159396 -0.1490580331851905 0.9729318471159396 -0.1490580331851905 0.027068152884060444 0.1490580331851905
4.999151775927686E8 0.028254334652752428 0.1525821799897551 0.9717456653472475 -0.1525821799897551 0.9717456653472475 -0.1525821799897551 0.028254334652752428 0.1525821799897551
5.124469318788904E8 0.029495444407416794 0.15618281406448503 0.9705045555925832 -0.15618281406448503 0.9705045555925832 -0.15618281406448503 0.029495444407416794 0.15618281406448503
5.252928291887221E8 0.030794019930317208 0.15986113937476037 0.969205980069683 -0.15986113937476035 0.969205980069683 -0.15986113937476035 0.030794019930317208 0.15986113937476037
5.38460744384562E8 0.03215271687216705 0.16361834132016112 0.9678472831278331 -0.16361834132016112 0.9678472831278331 -0.16361834132016112 0.03215271687216705 0.16361834132016112
5.519587497338737E8 0.03357431376319132 0.1674555822591448 0.9664256862368086 -0.1674555822591448 0.9664256862368086 -0.1674555822591448 0.03357431376319132 0.1674555822591448
5.65795119857796E8 0.03506171711214985 0.17137399661554642 0.96493828288785 -0.17137399661554645 0.96493828288785 -0.17137399661554645 0.03506171711214985 0.17137399661554642
5.799783368036921E8 0.036617966579161276 0.1753746855426484 0.9633820334208387 -0.1753746855426484 0.9633820334208387 -0.1753746855426484 0.036617966579161276 0.1753746855426484
5.945170952448653E8 0.038246240206565744 0.1794587111200604 0.9617537597934344 -0.17945871112006043 0.9617537597934344 -0.17945871112006043 0.038246240206565744 0.1794587111200604
6.094203078106103E8 0.03994985969036762 0.18362709005810518 0.9600501403096324 -0.1836270900581052 0.9600501403096324 -0.1836270900581052 0.03994985969036762 0.18362709005810518
6.246971105498872E8 0.04173229567300843 0.18788078688387025 0.9582677043269916 -0.18788078688387025 0.9582677043269916 -0.18788078688387025 0.04173229567300843 0.18788078688387025
6.403568685319468E8 0.043597173036297426 0.19222070658250814 0.9564028269637027 -0.19222070658250817 0.9564028269637027 -0.19222070658250817 0.043597173036297426 0.19222070658250814
6.564091815873624E8 0.045548276171270566 0.19664768666680332 0.9544517238287294 -0.19664768666680327 0.9544517238287294 -0.19664768666680327 0.045548276171270566 0.19664768666680332
6.728638901929643E8 0.04758955419951276 0.20116248864741956 0.9524104458004872 -0.20116248864741956 0.9524104458004872 -0.20116248864741956 0.04758955419951276 0.20116248864741956
6.897310815043094E8 0.04972512611806147 0.20576578887567357 0.9502748738819387 -0.20576578887567357 0.9502748738819387 -0.20576578887567357 0.04972512611806147 0.20576578887567357
7.070210955393578E8 0.051959285837359405 0.21045816873008713 0.9480407141626407 -0.21045816873008713 0.9480407141626407 -0.21045816873008713 0.051959285837359405 0.21045816873008713
7.247445315171736E8 0.0542965070788424 0.21524010411745575 0.9457034929211577 -0.21524010411745575 0.9457034929211577 -0.21524010411745575 0.0542965070788424 0.21524010411745575
7.429122543555104E8 0.05674144809557821 0.22011195425867122 0.9432585519044218 -0.22011195425867128 0.9432585519044218 -0.22011195425867128 0.05674144809557821 0.22011195425867122
7.615354013312879E8 0.059298956175917426 0.22507394972916245 0.9407010438240825 -0.22507394972916248 0.9407010438240825 -0.22507394972916248 0.059298956175917426 0.22507394972916245
7.806253889080213E8 0.061974071886327614 0.23012617972353677 0.9380259281136726 -0.23012617972353677 0.9380259281136726 -0.23012617972353677 0.061974071886327614 0.23012617972353677
8.001939197344098E8 0.06477203300545696 0.23526857851391128 0.935227966994543 -0.23526857851391123 0.935227966994543 -0.23526857851391123 0.06477203300545696 0.23526857851391128
8.202529898183522E8 0.06769827809697511 0.24050091107151608 0.932301721903025 -0.24050091107151614 0.932301721903025 -0.24050091107151614 0.06769827809697511 0.24050091107151608
8.408148958808119E8 0.07075844966387049 0.24582275782152602 0.9292415503361294 -0.24582275782152602 0.9292415503361294 -0.24582275782152602 0.07075844966387049 0.24582275782152602
8.618922428940133E8 0.07395839682161304 0.2512334985017456 0.926041603178387 -0.2512334985017456 0.926041603178387 -0.2512334985017456 0.07395839682161304 0.2512334985017456
8.834979518086178E8 0.07730417742193538 0.25673229509684115 0.9226958225780647 -0.2567322950968411 0.9226958225780647 -0.2567322950968411 0.07730417742193538 0.25673229509684115
9.056452674745889E8 0.0808020595529191 0.26231807382130196 0.9191979404470808 -0.26231807382130196 0.9191979404470808 -0.26231807382130196 0.0808020595529191 0.26231807382130196
9.283477667606282E8 0.0844585223346268 0.26798950612633743 0.9155414776653732 -0.26798950612633743 0.9155414776653732 -0.26798950612633743 0.0844585223346268 0.26798950612633743
9.516193668771405E8 0.08828025592268328 0.27374498870851083 0.9117197440773166 -0.27374498870851083 0.9117197440773166 -0.27374498870851083 0.08828025592268328 0.27374498870851083
9.754743339078336E8 0.0922741606250233 0.2795826225011895 0.9077258393749769 -0.2795826225011895 0.9077258393749769 -0.2795826225011895 0.0922741606250233 0.2795826225011895
9.999272915551994E8 0.0964473450295053 0.28550019063391047 0.9035526549704946 -0.28550019063391047 0.9035526549704946 -0.28550019063391047 0.0964473450295053 0.28550019063391047
1.024993230105207E9 0.10080712303227776 0.2914951353496152 0.8991928769677222 -0.29149513534961524 0.8991928769677222 -0.29149513534961524 0.10080712303227776 0.2914951353496152
1.0506875156167389E9 0.10536100964875028 0.297564533875502 0.8946389903512498 -0.297564533875502 0.8946389903512498 -0.297564533875502 0.10536100964875028 0.297564533875502
1.0770258993413675E9 0.11011671548078529 0.30370507325002655 0.8898832845192147 -0.30370507325002655 0.8898832845192147 -0.30370507325002655 0.11011671548078529 0.30370507325002655
1.1040245273792825E9 0.11508213970541926 0.3099130241165021 0.8849178602945806 -0.3099130241165021 0.8849178602945806 -0.3099130241165021 0.11508213970541926 0.3099130241165021
1.1316999505772529E9 0.12026536144207399 0.3161842135028354 0.8797346385579261 -0.31618421350283543 0.8797346385579261 -0.31618421350283543 0.12026536144207399 0.3161842135028354
1.160069134674726E9 0.12567462934698806 0.32251399661732993 0.8743253706530119 -0.32251399661732993 0.8743253706530119 -0.32251399661732993 0.12567462934698806 0.32251399661732993
1.1891494707042503E9 0.13131834927556119 0.3288972277022332 0.8686816507244389 -0.3288972277022332 0.8686816507244389 -0.3288972277022332 0.13131834927556119 0.3288972277022332
1.218958785652629E9 0.1372050698456373 0.3353282299999195 0.8627949301543628 -0.3353282299999195 0.8627949301543628 -0.3353282299999195 0.1372050698456373 0.3353282299999195
1.249515353389308E9 0.1433434657275746 0.34180076490131744 0.8566565342724254 -0.3418007649013174 0.8566565342724254 -0.3418007649013174 0.1433434657275746 0.34180076490131744
1.2808379058687348E9 0.14974231848047953 0.3483080003625172 0.8502576815195204 -0.3483080003625172 0.8502576815195204 -0.3483080003625172 0.14974231848047953 0.3483080003625172
1.3129456446135113E9 0.15641049474836666 0.35484247869343105 0.8435895052516332 -0.35484247869343105 0.8435895052516332 -0.35484247869343105 0.15641049474836666 0.35484247869343105
1.345858252485428E9 0.16335692162551718 0.36139608384201394 0.8366430783744829 -0.36139608384201394 0.8366430783744829 -0.36139608384201394 0.16335692162551718 0.36139608384201394
1.3795959057515485E9 0.17059055899712114 0.36796000831883746 0.8294094410028788 -0.3679600083188374 0.8294094410028788 -0.3679600083188374 0.17059055899712114 0.36796000831883746
1.4141792864527872E9 0.17812036865972197 0.3745247199297978 0.821879631340278 -0.37452471992979774 0.821879631340278 -0.37452471992979774 0.17812036865972197 0.3745247199297978
1.4496295950825145E9 0.1859552800262485 0.381079928509325 0.8140447199737516 -0.38107992850932504 0.8140447199737516 -0.38107992850932504 0.1859552800262485 0.381079928509325
1.485968563583012E9 0.19410415222287114 0.38761455287263535 0.8058958477771289 -0.38761455287263535 0.8058958477771289 -0.38761455287263535 0.19410415222287114 0.38761455287263535
1.5232184686676948E9 0.2025757323897919 0.39411668823314966 0.7974242676102082 -0.3941166882331497 0.7974242676102082 -0.3941166882331497 0.2025757323897919 0.39411668823314966
1.5614021454773154E9 0.21137861000576635 0.40057357436011104 0.7886213899942335 -0.400573574360111 0.7886213899942335 -0.400573574360111 0.21137861000576635 0.40057357436011104
1.600543001578475E9 0.2205211670668799 0.4069715647813755 0.77947883293312 -0.4069715647813755 0.77947883293312 -0.4069715647813755 0.2205211670668799 0.4069715647813755
1.6406650313130717E9 0.2300115239642934 0.4132960973671679 0.7699884760357067 -0.4132960973671679 0.7699884760357067 -0.4132960973671679 0.2300115239642934 0.4132960973671679
1.6817928305074291E9 0.2398574809235104 0.419531666661856 0.7601425190764898 -0.41953166666185604 0.7601425190764898 -0.41953166666185604 0.2398574809235104 0.419531666661856
1.7239516115501761E9 0.25006645488963586 0.42566179836224727 0.7499335451103641 -0.42566179836224727 0.7499335451103641 -0.42566179836224727 0.25006645488963586 0.42566179836224727
1.767167218848079E9 0.26064541176920175 0.43166902637197774 0.7393545882307984 -0.4316690263719778 0.7393545882307984 -0.4316690263719778 0.26064541176920175 0.43166902637197774
1.8114661446693156E9 0.2716007939698008 0.4375348728918609 0.7283992060301991 -0.4375348728918609 0.7283992060301991 -0.4375348728918609 0.2716007939698008 0.4375348728918609
1.8568755453839233E9 0.28293844321404915 0.44323983203491696 0.7170615567859508 -0.443239832034917 0.7170615567859508 -0.443239832034917 0.28293844321404915 0.44323983203491696
1.90342325811133E9 0.2946635186444496 0.4487633574816299 0.7053364813555503 -0.44876335748162993 0.7053364813555503 -0.44876335748162993 0.2946635186444496 0.4487633574816299
1.9511378177852342E9 0.3067804102805975 0.4540838547150802 0.6932195897194023 -0.4540838547150802 0.6932195897194023 -0.4540838547150802 0.3067804102805975 0.4540838547150802
2.0000484746462293E9 0.3192926479396804 0.4591786783961883 0.6807073520603196 -0.45917867839618837 0.6807073520603196 -0.45917867839618837 0.3192926479396804 0.4591786783961883
2.0501852121729634E9 0.3322028057853509 0.4640241354556589 0.667797194214649 -0.4640241354556589 0.667797194214649 -0.4640241354556589 0.3322028057853509 0.4640241354556589
2.1015787654627578E9 0.34551240272827544 0.46859549449045307 0.6544875972717246 -0.46859549449045307 0.6544875972717246 -0.46859549449045307 0.34551240272827544 0.46859549449045307
2.1542606400730224E9 0.35922179896373324 0.4728670020579864 0.6407782010362667 -0.4728670020579864 0.6407782010362667 -0.4728670020579864 0.35922179896373324 0.4728670020579864
2.208263131334948E9 0.373330088996748 0.4768119064598981 0.626669911003252 -0.4768119064598981 0.626669911003252 -0.4768119064598981 0.373330088996748 0.4768119064598981
2.263619344151384E9 0.3878349915727664 0.4804024895984586 0.6121650084272334 -0.48040248959845855 0.6121650084272334 -0.48040248959845855 0.3878349915727664 0.4804024895984586
2.320363213290968E9 0.40273273700075307 0.48361010747173955 0.5972672629992469 -0.4836101074717395 0.5972672629992469 -0.4836101074717395 0.40273273700075307 0.48361010747173955
2.3785295241910253E9 0.41801795242475975 0.4864052398480548 0.5819820475752403 -0.4864052398480548 0.5819820475752403 -0.4864052398480548 0.41801795242475975 0.4864052398480548
2.4381539342819066E9 0.43368354566812156 0.4887575496254125 0.5663164543318784 -0.4887575496254125 0.5663164543318784 -0.4887575496254125 0.43368354566812156 0.4887575496254125
2.49927299484592E9 0.44972058834011924 0.49063595233760465 0.5502794116598808 -0.49063595233760465 0.5502794116598808 -0.49063595233760465 0.44972058834011924 0.49063595233760465
2.561924173424181E9 0.46611819895649736 0.4920086962150732 0.5338818010435027 -0.4920086962150732 0.5338818010435027 -0.4920086962150732 0.46611819895649736 0.4920086962150732
2.626145876785187E9 0.48286342688109124 0.4928434531461208 0.5171365731189087 -0.4928434531461208 0.5171365731189087 -0.4928434531461208 0.48286342688109124 0.4928434531461208
2.6919774744691267E9 0.4999411379440908 0.49310742081294384 0.5000588620559094 -0.49310742081294384 0.5000588620559094 -0.49310742081294384 0.4999411379440908 0.49310742081294384
2.759459322922431E9 0.5173339026315017 0.49276743619830454 0.4826660973684983 -0.49276743619830454 0.4826660973684983 -0.49276743619830454 0.5173339026315017 0.49276743619830454
2.82863279023728E9 0.5350218877682895 0.49179010057375244 0.46497811223171037 -0.49179010057375244 0.46497811223171037 -0.49179010057375244 0.5350218877682895 0.49179010057375244
2.899540281511323E9 0.5529827526330039 0.4901419159908453 0.44701724736699616 -0.4901419159908453 0.44701724736699616 -0.4901419159908453 0.5529827526330039 0.4901419159908453
2.9722252648430557E9 0.5711915504427795 0.4877894332050035 0.4288084495572206 -0.48778943320500345 0.4288084495572206 -0.48778943320500345 0.5711915504427795 0.4877894332050035
3.0467322979789014E9 0.5896206361335273 0.4846994108699753 0.41037936386647256 -0.4846994108699753 0.41037936386647256 -0.4846994108699753 0.5896206361335273 0.4846994108699753
3.123107055628215E9 0.608239581329818 0.4808389857524084 0.39176041867018196 -0.48083898575240835 0.39176041867018196 -0.48083898575240835 0.608239581329818 0.4808389857524084
3.2013963574630675E9 0.6270150973523576 0.47617585363404935 0.37298490264764245 -0.47617585363404935 0.37298490264764245 -0.47617585363404935 0.6270150973523576 0.47617585363404935
3.281648196819891E9 0.6459109670480562 0.47067846049732914 0.3540890329519438 -0.47067846049732914 0.3540890329519438 -0.47067846049732914 0.6459109670480562 0.47067846049732914
3.3639117701206E9 0.6648879861495764 0.46431620353248065 0.3351120138504236 -0.4643162035324807 0.3351120138504236 -0.4643162035324807 0.6648879861495764 0.46431620353248065
3.4482375070312815E9 0.6839039147795262 0.4570596414650014 0.3160960852204739 -0.4570596414650014 0.3160960852204739 -0.4570596414650014 0.6839039147795262 0.4570596414650014
3.534677101376833E9 0.7029134396115981 0.44888071368544735 0.29708656038840175 -0.44888071368544735 0.29708656038840175 -0.44888071368544735 0.7029134396115981 0.44888071368544735
3.623283542830625E9 0.7218681470905712 0.43975296767331906 0.27813185290942866 -0.43975296767331906 0.27813185290942866 -0.43975296767331906 0.7218681470905712 0.43975296767331906
3.71411114939849E9 0.7407165079994394 0.4296517942471889 0.25928349200056056 -0.42965179424718886 0.25928349200056056 -0.42965179424718886 0.7407165079994394 0.4296517942471889
3.8072156007170744E9 0.7594038735507226 0.41855467024775383 0.24059612644927744 -0.41855467024775383 0.24059612644927744 -0.41855467024775383 0.7594038735507226 0.41855467024775383
3.9026539721868424E9 0.7778724830766784 0.4064414083722859 0.22212751692332156 -0.4064414083722859 0.22212751692332156 -0.4064414083722859 0.7778724830766784 0.4064414083722859
4.0004847699607854E9 0.796061483307537 0.3932944140302789 0.2039385166924631 -0.3932944140302789 0.2039385166924631 -0.3932944140302789 0.796061483307537 0.3932944140302789
4.1007679668101463E9 0.8139069591666912 0.37909894928243704 0.18609304083330883 -0.37909894928243704 0.18609304083330883 -0.37909894928243704 0.8139069591666912 0.37909894928243704
4.2035650388892946E9 0.8313419759871367 0.3638434041586642 0.16865802401286337 -0.3638434041586642 0.16865802401286337 -0.3638434041586642 0.8313419759871367 0.3638434041586642
4.308939003422138E9 0.8482966330751421 0.3475195759244309 0.15170336692485778 -0.3475195759244309 0.15170336692485778 -0.3475195759244309 0.8482966330751421 0.3475195759244309
4.416954457333322E9 0.8646981286274877 0.33012295717588913 0.13530187137251232 -0.33012295717588913 0.13530187137251232 -0.33012295717588913 0.8646981286274877 0.33012295717588913
4.527677616847753E9 0.8804708361604682 0.3116530339878473 0.11952916383953181 -0.3116530339878473 0.11952916383953181 -0.3116530339878473 0.8804708361604682 0.3116530339878473
4.6411763580828705E9 0.8955363928464617 0.2921135957081209 0.10446360715353832 -0.2921135957081209 0.10446360715353832 -0.2921135957081209 0.8955363928464617 0.2921135957081209
4.757520258658397E9 0.9098138004918779 0.27151305837739187 0.09018619950812208 -0.27151305837739187 0.09018619950812208 -0.27151305837739187 0.9098138004918779 0.27151305837739187
4.876780640349229E9 0.923219540344549 0.24986480414269646 0.07678045965545102 -0.24986480414269646 0.07678045965545102 -0.24986480414269646 0.923219540344549 0.24986480414269646
4.999030612807464E9 0.9356677035050821 0.22718753940884448 0.0643322964949178 -0.22718753940884448 0.0643322964949178 -0.22718753940884448 0.9356677035050821 0.22718753940884448
5.124345118380519E9 0.9470701394520419 0.2035056748145946 0.052929860547958146 -0.20350567481459464 0.052929860547958146 -0.20350567481459464 0.9470701394520419 0.2035056748145946
5.252800978052659E9 0.9573366260913224 0.17884973040365898 0.0426633739086776 -0.17884973040365895 0.0426633739086776 -0.17884973040365895 0.9573366260913224 0.17884973040365898
5.384476938538257E9 0.9663750658216678 0.15325676955245698 0.03362493417833219 -0.15325676955245696 0.03362493417833219 -0.15325676955245696 0.9663750658216678 0.15325676955245698
5.519453720555495E9 0.9740917133851592 0.12677086527805811 0.02590828661484074 -0.1267708652780581 0.02590828661484074 -0.1267708652780581 0.9740917133851592 0.12677086527805811
5.657814068310264E9 0.9803914427554229 0.09944360243296595 0.019608557244577184 -0.09944360243296592 0.019608557244577184 -0.09944360243296592 0.9803914427554229 0.09944360243296595
5.799642800220422E9 0.985178062014423 0.07133461894083264 0.01482193798557704 -0.07133461894083264 0.01482193798557704 -0.07133461894083264 0.985178062014423 0.07133461894083264
5.945026860911693E9 0.9883546870815572 0.042512188569314296 0.01164531291844275 -0.042512188569314255 0.01164531291844275 -0.042512188569314255 0.9883546870815572 0.042512188569314296
6.094055374516912E9 0.9898241872766375 0.013053846691020193 0.010175812723362545 -0.013053846691020174 0.010175812723362545 -0.013053846691020174 0.9898241872766375 0.013053846691020193
6.246819699311374E9 0.9894897179972151 -0.016952941045937343 0.01051028200278492 0.016952941045937347 0.01051028200278492 0.016952941045937347 0.9894897179972151 -0.016952941045937343
6.403413483717826E9 0.9872553582262871 -0.04741006934138794 0.01274464177371287 0.0474100693413879 0.01274464177371287 0.0474100693413879 0.9872553582262871 -0.04741006934138794
6.563932723715288E9 0.9830268730870133 -0.0782080482111751 0.016973126912986757 0.0782080482111751 0.016973126912986757 0.0782080482111751 0.9830268730870133 -0.0782080482111751
6.728475821687083E9 0.9767126241184714 -0.10922523105869109 0.023287375881528714 0.1092252310586911 0.023287375881528714 0.1092252310586911 0.9767126241184714 -0.10922523105869109
6.897143646743952E9 0.968224652205106 -0.1403270293253097 0.0317753477948941 0.14032702932530972 0.0317753477948941 0.14032702932530972 0.968224652205106 -0.1403270293253097
7.0700395965594425E9 0.9574799599368785 -0.17136513306828496 0.042520040063121566 0.171365133068285 0.042520040063121566 0.171365133068285 0.9574799599368785 -0.17136513306828496
7.247269660755261E9 0.9444020213181145 -0.20217676397926543 0.05559797868188543 0.20217676397926543 0.05559797868188543 0.20217676397926543 0.9444020213181145 -0.20217676397926543
7.428942485875673E9 0.9289225468039282 -0.23258399591595694 0.07107745319607188 0.23258399591595694 0.07107745319607188 0.23258399591595694 0.9289225468039282 -0.23258399591595694
7.615169441990533E9 0.9109835301475436 -0.262393188015926 0.08901646985245638 0.26239318801592604 0.08901646985245638 0.26239318801592604 0.9109835301475436 -0.262393188015926
7.806064690968044E9 0.8905395999058205 -0.2913945868396463 0.10946040009417937 0.29139458683964636 0.10946040009417937 0.29139458683964636 0.8905395999058205 -0.2913945868396463
8.001745256458828E9 0.8675606919837692 -0.319362166545089 0.1324393080162308 0.319362166545089 0.1324393080162308 0.319362166545089 0.8675606919837692 -0.319362166545089
8.202331095634465E9 0.8420350495208287 -0.34605378941523346 0.15796495047917117 0.34605378941523346 0.15796495047917117 0.34605378941523346 0.8420350495208287 -0.34605378941523346
8.407945172724229E9 0.813972541899025 -0.3712117824477835 0.18602745810097496 0.3712117824477835 0.18602745810097496 0.3712117824477835 0.813972541899025 -0.3712117824477835
8.618713534395367E9 0.7834082748687224 -0.3945640381217011 0.2165917251312775 0.39456403812170115 0.2165917251312775 0.39456403812170115 0.7834082748687224 -0.3945640381217011
8.83476538702284E9 0.7504064380514076 -0.4158257573967815 0.24959356194859236 0.4158257573967815 0.24959356194859236 0.4158257573967815 0.7504064380514076 -0.4158257573967815
9.056233175896202E9 0.7150643039854341 -0.4347019585195786 0.2849356960145659 0.43470195851957855 0.2849356960145659 0.43470195851957855 0.7150643039854341 -0.4347019585195786
9.283252666411852E9 0.6775162545227137 -0.4508908738520761 0.3224837454772863 0.4508908738520761 0.3224837454772863 0.4508908738520761 0.6775162545227137 -0.4508908738520761
9.515963027300766E9 0.6379376666127997 -0.4640883458380232 0.3620623333872004 0.4640883458380232 0.3620623333872004 0.4640883458380232 0.6379376666127997 -0.4640883458380232
9.75450691594239E9 0.5965484422271976 -0.47399330926048255 0.40345155777280245 0.47399330926048255 0.40345155777280245 0.47399330926048255 0.5965484422271976 -0.47399330926048255
9.999030565817337E9 0.553615919614804 -0.48031440708810863 0.44638408038519584 0.48031440708810863 0.44638408038519584 0.48031440708810863 0.553615919614804 -0.48031440708810863
1.0249683876152142E10 0.5094568600165126 -0.48277772900107035 0.49054313998348764 0.4827777290010704 0.49054313998348764 0.4827777290010704 0.5094568600165126 -0.48277772900107035
1.0506620503811396E10 0.4644381717688878 -0.48113558393049355 0.5355618282311122 0.48113558393049344 0.5355618282311122 0.48113558393049344 0.4644381717688878 -0.48113558393049355
1.0769997957493235E10 0.41897602012140844 -0.4751761215069797 0.5810239798785916 0.4751761215069798 0.5810239798785916 0.4751761215069798 0.41897602012140844 -0.4751761215069797
1.1039977694286257E10 0.37353298455451356 -0.46473350598138824 0.6264670154454863 0.46473350598138824 0.6264670154454863 0.46473350598138824 0.37353298455451356 -0.46473350598138824
1.1316725218646803E10 0.3286129740642233 -0.449698227366775 0.6713870259357767 0.449698227366775 0.6713870259357767 0.449698227366775 0.3286129740642233 -0.449698227366775
1.1600410183857359E10 0.28475370105034786 -0.43002701961236933 0.7152462989496522 0.43002701961236933 0.7152462989496522 0.43002701961236933 0.28475370105034786 -0.43002701961236933
1.1891206496028435E10 0.24251664864085623 -0.4057517595184633 0.7574833513591437 0.4057517595184633 0.7574833513591437 0.4057517595184633 0.24251664864085623 -0.4057517595184633
1.2189292420707336E10 0.2024746413741974 -0.37698666014223087 0.7975253586258025 0.3769866601422309 0.7975253586258025 0.3769866601422309 0.2024746413741974 -0.37698666014223087
1.2494850692159586E10 0.16519733485432106 -0.3439330660099135 0.8348026651456789 0.3439330660099135 0.8348026651456789 0.3439330660099135 0.16519733485432106 -0.3439330660099135
1.2808068625389587E10 0.13123515832192592 -0.3068812188392619 0.8687648416780742 0.3068812188392619 0.8687648416780742 0.3068812188392619 0.13123515832192592 -0.3068812188392619
1.3129138230969591E10 0.1011024503794913 -0.26620849931773394 0.8988975496205087 0.26620849931773394 0.8988975496205087 0.26620849931773394 0.1011024503794913 -0.26620849931773394
1.3458256332746967E10 0.07526069375509489 -0.22237386049192046 0.9247393062449051 0.22237386049192046 0.9247393062449051 0.22237386049192046 0.07526069375509489 -0.22237386049192046
1.379562468850234E10 0.05410285183913781 -0.1759084373384969 0.945897148160862 0.1759084373384969 0.945897148160862 0.1759084373384969 0.05410285183913781 -0.1759084373384969
1.4141450113632141E10 0.037939815460043276 -0.12740261925651108 0.9620601845399568 0.12740261925651108 0.9620601845399568 0.12740261925651108 0.037939815460043276 -0.12740261925651108
1.449594460793183E10 0.02698987168010918 -0.07749017282228556 0.9730101283198909 0.07749017282228557 0.9730101283198909 0.07749017282228557 0.02698987168010918 -0.07749017282228556
1.4859325485557047E10 0.021371910645144696 -0.0268302628326453 0.9786280893548553 0.0268302628326453 0.9786280893548553 0.0268302628326453 0.021371910645144696 -0.0268302628326453
1.5231815508242851E10 0.021102810620080303 0.023911594823035842 0.9788971893799195 -0.023911594823035846 0.9788971893799195 -0.023911594823035846 0.021102810620080303 0.023911594823035842
1.5613643021862217E10 0.026099117366171723 0.07408253004888576 0.9739008826338283 -0.07408253004888576 0.9739008826338283 -0.07408253004888576 0.026099117366171723 0.07408253004888576
1.6005042096407995E10 0.03618280187071739 0.12306017327187503 0.9638171981292828 -0.12306017327187503 0.9638171981292828 -0.12306017327187503 0.03618280187071739 0.12306017327187503
1.6406252669483648E10 0.051090580760137456 0.17026840799412338 0.9489094192398625 -0.17026840799412338 0.9489094192398625 -0.17026840799412338 0.051090580760137456 0.17026840799412338
1.6817520693391256E10 0.07048605071779478 0.21519027729775642 0.9295139492822052 -0.21519027729775642 0.9295139492822052 -0.21519027729775642 0.07048605071779478 0.21519027729775642
1.72390982859064E10 0.09397374416595473 0.2573775690743838 0.9060262558340453 -0.2573775690743838 0.9060262558340453 -0.2573775690743838 0.09397374416595473 0.2573775690743838
1.7671243884832916E10 0.12111416601697204 0.2964568898002447 0.8788858339830279 -0.2964568898002447 0.8788858339830279 -0.2964568898002447 0.12111416601697204 0.2964568898002447
1.811422240643172E10 0.1514389139456814 0.33213230416257544 0.8485610860543186 -0.33213230416257544 0.8485610860543186 -0.33213230416257544 0.1514389139456814 0.33213230416257544
1.8568305407821373E10 0.18446509978194509 0.3641848410517819 0.8155349002180549 -0.36418484105178184 0.8155349002180549 -0.36418484105178184 0.18446509978194509 0.3641848410517819
1.9033771253449337E10 0.21970845317870286 0.39246932886341207 0.7802915468212972 -0.39246932886341207 0.7802915468212972 -0.39246932886341207 0.21970845317870286 0.39246932886341207
1.951090528573667E10 0.2566946749838252 0.41690911896515376 0.7433053250161747 -0.41690911896515376 0.7433053250161747 -0.41690911896515376 0.2566946749838252 0.41690911896515376
2.0E10 0.2949687935532855 0.43748928916910773 0.7050312064467146 -0.43748928916910773 0.7050312064467146 -0.43748928916910773 0.2949687935532855 0.43748928916910773
